Division,WeightClassKg,Place,Name,Team,BodyweightKg,Best3SquatKg,Best3BenchKg,Best3DeadliftKg,TotalKg,Equipment,Event,Sex,BirthDate
Boys,51.71,1,Brodie Flores,Victoria West,50.8,204.12,113.4,183.7,501.22,Unlimited,SBD,M,
Boys,51.71,2,Jose Gonzalez,Cotulla,50.17,147.42,83.91,149.69,381.02,Unlimited,SBD,M,
Boys,51.71,3,Jose Chapa,Ben Bolt-Palito Blanco,51.07,142.88,79.38,147.42,369.68,Unlimited,SBD,M,
Boys,51.71,4,Jace McGee,Alice,51.26,102.06,56.7,108.86,267.62,Unlimited,SBD,M,
Boys,51.71,5,Nehemias Mencias,Agua Dulce,50.44,102.06,47.63,90.72,240.4,Unlimited,SBD,M,
Boys,51.71,6,Zachary Cantu,Pettus,49.9,74.84,49.9,86.18,210.92,Unlimited,SBD,M,
Boys,51.71,DQ,Nikolas Lopez,Alice,46.27,88.45,54.43,,,Unlimited,SBD,M,
Boys,51.71,DQ,Jonathan Aguilar,Ben Bolt-Palito Blanco,51.71,,,,,Unlimited,SBD,M,
Boys,51.71,DQ,Aiden Villarreal,Corpus Christi Tuloso-Midway,51.71,,,,,Unlimited,SBD,M,
Boys,55.79,1,Jadrian Torres,Agua Dulce,54.88,181.44,127.01,181.44,489.88,Unlimited,SBD,M,
Boys,55.79,2,Louis Maldonado,Sinton,55.79,156.49,111.13,181.44,449.06,Unlimited,SBD,M,
Boys,55.79,3,Jonathon Ruvalcaba,Alice,54.88,127.01,90.72,156.49,374.21,Unlimited,SBD,M,
Boys,55.79,4,Landon Liserio,Mathis,55.7,122.47,99.79,140.61,362.87,Unlimited,SBD,M,
Boys,55.79,5,Jeremy Godinez,Ben Bolt-Palito Blanco,53.16,136.08,74.84,124.74,335.66,Unlimited,SBD,M,
Boys,55.79,6,Shane Salinas,Falfurrias,54.88,102.06,61.23,133.81,297.1,Unlimited,SBD,M,
Boys,55.79,DQ,Dominic Becerra,Sinton,54.07,111.13,,,,Unlimited,SBD,M,
Boys,55.79,DQ,Eric Cason,Kingsville King,52.53,,,,,Unlimited,SBD,M,
Boys,55.79,DQ,Jaiden Manero,Rockport-Fulton,54.7,,,,,Unlimited,SBD,M,
Boys,59.87,1,Roger Gonzalez,Falfurrias,59.42,174.63,111.13,158.76,444.52,Unlimited,SBD,M,
Boys,59.87,2,Nicholas Vela,Kingsville King,58.79,138.35,102.06,183.7,424.11,Unlimited,SBD,M,
Boys,59.87,3,J-Den Martinez,Mathis,59.24,170.1,90.72,163.29,424.11,Unlimited,SBD,M,
Boys,59.87,4,Elijah Bland,Victoria West,57.7,158.76,92.99,158.76,410.5,Unlimited,SBD,M,
Boys,59.87,5,Bruno Rodriguez,Beeville Jones,58.97,147.42,90.72,154.22,392.36,Unlimited,SBD,M,
Boys,59.87,6,Izaak Saenz,Ben Bolt-Palito Blanco,59.87,120.2,61.23,154.22,335.66,Unlimited,SBD,M,
Boys,59.87,7,Aiden Benavides,Corpus Christi Calallen,59.42,111.13,79.38,140.61,331.12,Unlimited,SBD,M,
Boys,67.13,1,Marco Benavidez,Cotulla,67.04,242.67,170.1,226.8,639.57,Unlimited,SBD,M,
Boys,67.13,2,Ryan Silvas,Falfurrias,63.41,213.19,122.47,208.65,544.31,Unlimited,SBD,M,
Boys,67.13,3,David Rodriguez,Mathis,67.13,167.83,142.88,174.63,485.34,Unlimited,SBD,M,
Boys,67.13,4,Steven Ranguini,Corpus Christi Tuloso-Midway,66.95,179.17,102.06,201.85,483.08,Unlimited,SBD,M,
Boys,67.13,5,Zachary Garza,Corpus Christi Tuloso-Midway,64.14,183.7,124.74,167.83,476.27,Unlimited,SBD,M,
Boys,67.13,6,Mario Vega,Ben Bolt-Palito Blanco,65.86,195.04,115.67,156.49,467.2,Unlimited,SBD,M,
Boys,67.13,7,Benny Espinoza,Agua Dulce,63.59,167.83,120.2,167.83,455.86,Unlimited,SBD,M,
Boys,67.13,8,Ethan Lerma,Kingsville King,63.14,170.1,92.99,179.17,442.25,Unlimited,SBD,M,
Boys,67.13,9,Noah Perez,Ben Bolt-Palito Blanco,65.5,158.76,102.06,156.49,417.3,Unlimited,SBD,M,
Boys,67.13,10,Jonas Ruby,Victoria West,64.5,156.49,106.59,142.88,405.97,Unlimited,SBD,M,
Boys,67.13,11,Israel Charles,Pettus,66.32,115.67,88.45,136.08,340.19,Unlimited,SBD,M,
Boys,67.13,12,Andrew Pena,Kingsville King,66.77,117.93,74.84,147.42,340.19,Unlimited,SBD,M,
Boys,67.13,DQ,Rey Carbajal,Falfurrias,64.68,174.63,106.59,,,Unlimited,SBD,M,
Boys,67.13,DQ,Alec Leija,Cotulla,64.86,176.9,,,,Unlimited,SBD,M,
Boys,67.13,DQ,Melisio Garcia,Pettus,65.59,174.63,88.45,,,Unlimited,SBD,M,
Boys,67.13,DQ,Jacob Wright,Rockport-Fulton,67.13,,,,,Unlimited,SBD,M,
Boys,67.13,DQ,Manny Vega,Premont,66.41,183.7,124.74,,,Unlimited,SBD,M,
Boys,74.84,1,Marc Macias,Alice,73.03,247.21,147.42,231.33,625.96,Unlimited,SBD,M,
Boys,74.84,2,Traey Alvarado,Rockport-Fulton,70.13,242.67,156.49,224.53,623.69,Unlimited,SBD,M,
Boys,74.84,3,Roel Gonzalez III,Alice,69.85,242.67,142.88,226.8,612.35,Unlimited,SBD,M,
Boys,74.84,4,Michael Ramos,Rockport-Fulton,73.3,226.8,154.22,226.8,607.81,Unlimited,SBD,M,
Boys,74.84,5,Duke Bernal,Mathis,74.84,226.8,154.22,195.04,576.06,Unlimited,SBD,M,
Boys,74.84,6,Luke Garza,Corpus Christi Calallen,74.21,210.92,142.88,199.58,553.38,Unlimited,SBD,M,
Boys,74.84,7,Aiden Martinez,Agua Dulce,71.03,183.7,136.08,224.53,544.31,Unlimited,SBD,M,
Boys,74.84,8,Aiden Carabajal,Victoria West,74.12,201.85,140.61,201.85,544.31,Unlimited,SBD,M,
Boys,74.84,9,Samuel Carbajal,Falfurrias,70.58,197.31,111.13,201.85,510.29,Unlimited,SBD,M,
Boys,74.84,10,Matthew Martinez,Corpus Christi Tuloso-Midway,72.67,165.56,124.74,183.7,474,Unlimited,SBD,M,
Boys,74.84,11,Roberto Valle,Mathis,69.67,185.97,111.13,170.1,467.2,Unlimited,SBD,M,
Boys,74.84,12,John Cason,Kingsville King,72.57,158.76,106.59,188.24,453.59,Unlimited,SBD,M,
Boys,74.84,13,Segio San Miguel,Kingsville King,68.86,140.61,83.91,188.24,412.77,Unlimited,SBD,M,
Boys,74.84,14,Manuel Hernandez,Corpus Christi Calallen,73.03,129.27,90.72,136.08,356.07,Unlimited,SBD,M,
Boys,74.84,DQ,Esteban Garcia,Alice,74.39,,,,,Unlimited,SBD,M,
Boys,74.84,DQ,Aiden Galvan,Sinton,73.12,,,,,Unlimited,SBD,M,
Boys,74.84,DQ,Eduardo Ortega,Cotulla,74.84,,,,,Unlimited,SBD,M,
Boys,74.84,DQ,Hunter Lange,Agua Dulce,74.84,,,,,Unlimited,SBD,M,
Boys,74.84,DQ,Kaleb Cruz,Beeville Jones,70.49,140.61,,,,Unlimited,SBD,M,
Boys,82.1,1,Hector Reyna,Sinton,81.01,256.28,204.12,206.38,666.78,Unlimited,SBD,M,
Boys,82.1,2,Larry Saenz,Corpus Christi Calallen,79.65,272.16,158.76,226.8,657.71,Unlimited,SBD,M,
Boys,82.1,3,Ricardo Ruiz,Cotulla,81.1,254.01,151.95,210.92,616.89,Unlimited,SBD,M,
Boys,82.1,4,Ayden Martinez,Mathis,80.47,238.14,136.08,226.8,601.01,Unlimited,SBD,M,
Boys,82.1,5,Randy Garcia,Cotulla,80.83,204.12,142.88,195.04,542.04,Unlimited,SBD,M,
Boys,82.1,6,Sean Howell,Rockport-Fulton,76.84,190.51,111.13,206.38,508.02,Unlimited,SBD,M,
Boys,82.1,7,Kristopher Bieniek,Corpus Christi Tuloso-Midway,79.29,195.04,120.2,188.24,503.49,Unlimited,SBD,M,
Boys,82.1,8,Caiden Payne,Corpus Christi Calallen,81.1,183.7,115.67,195.04,494.42,Unlimited,SBD,M,
Boys,82.1,9,Ayden Gilchrist,Corpus Christi Tuloso-Midway,80.83,176.9,108.86,195.04,480.81,Unlimited,SBD,M,
Boys,82.1,10,Armando Perez,Alice,80.74,172.37,122.47,183.7,478.54,Unlimited,SBD,M,
Boys,82.1,11,Amado Ramirez,Alice,81.19,174.63,131.54,156.49,462.66,Unlimited,SBD,M,
Boys,82.1,12,Steve Trevino,Mathis,80.29,170.1,108.86,161.03,439.98,Unlimited,SBD,M,
Boys,82.1,13,Michael Martinez,Corpus Christi Tuloso-Midway,81.37,142.88,83.91,158.76,385.55,Unlimited,SBD,M,
Boys,82.1,14,Hunter Reeves,Corpus Christi Tuloso-Midway,81.56,108.86,106.59,163.29,378.75,Unlimited,SBD,M,
Boys,82.1,DQ,Alejandro Villegas,Alice,80.29,174.63,,,,Unlimited,SBD,M,
Boys,82.1,DQ,Joaquin Moreno,Agua Dulce,78.02,,,,,Unlimited,SBD,M,
Boys,89.81,1,Ryne Espinoza,Beeville Jones,88.45,331.12,208.65,265.35,805.13,Unlimited,SBD,M,
Boys,89.81,2,Gerardo Gonzalez,Cotulla,88.9,308.44,226.8,249.48,784.71,Unlimited,SBD,M,
Boys,89.81,3,Hunter Gaines,Rockport-Fulton,86.18,258.55,170.1,215.46,644.1,Unlimited,SBD,M,
Boys,89.81,4,Donelle Wright,Beeville Jones,86.27,247.21,129.27,213.19,589.67,Unlimited,SBD,M,
Boys,89.81,5,Dominic Huerta,Agua Dulce,87.36,222.26,165.56,195.04,582.87,Unlimited,SBD,M,
Boys,89.81,6,Sabastin Morales,Sinton,88.72,229.06,136.08,208.65,573.79,Unlimited,SBD,M,
Boys,89.81,7,Ruban Rodriguez,Kingsville King,84.01,199.58,129.27,195.04,523.9,Unlimited,SBD,M,
Boys,89.81,8,Wyatt Kalhoefer,Rockport-Fulton,85.46,197.31,122.47,201.85,521.63,Unlimited,SBD,M,
Boys,89.81,9,Kris Guzman,Ben Bolt-Palito Blanco,83.19,183.7,142.88,183.7,510.29,Unlimited,SBD,M,
Boys,89.81,10,Eric Luarca,Alice,88.45,199.58,111.13,197.31,508.02,Unlimited,SBD,M,
Boys,89.81,11,Demarius Montgomery,Kingsville King,89.81,183.7,122.47,188.24,494.42,Unlimited,SBD,M,
Boys,89.81,12,Urijah Perez,Agua Dulce,87.36,188.24,120.2,183.7,492.15,Unlimited,SBD,M,
Boys,89.81,13,Diego Villarreal,Premont,87.54,167.83,129.27,183.7,480.81,Unlimited,SBD,M,
Boys,89.81,14,Rigo Munoz,Premont,89.81,161.03,92.99,170.1,424.11,Unlimited,SBD,M,
Boys,89.81,DQ,Mylan Pena,Falfurrias,86.27,,,,,Unlimited,SBD,M,
Boys,89.81,DQ,Tristian Luna,Corpus Christi Calallen,88.18,,,,,Unlimited,SBD,M,
Boys,89.81,DQ,Nevyn Moreno,Alice,89.81,,,,,Unlimited,SBD,M,
Boys,89.81,DQ,Noah Neibrandt,Victoria West,89.81,,,,,Unlimited,SBD,M,
Boys,99.79,1,Izayah Esparza,Sinton,98.25,272.16,183.7,244.94,700.8,Unlimited,SBD,M,
Boys,99.79,2,Matthew Teal,Corpus Christi Calallen,98.7,254.01,204.12,235.87,694,Unlimited,SBD,M,
Boys,99.79,3,Kade Alston,Rockport-Fulton,95.53,269.89,181.44,238.14,689.46,Unlimited,SBD,M,
Boys,99.79,4,Jacob Martin,Beeville Jones,98.43,274.42,174.63,226.8,675.85,Unlimited,SBD,M,
Boys,99.79,5,Braedyn Garland,Victoria West,98.97,272.16,174.63,215.46,662.24,Unlimited,SBD,M,
Boys,99.79,6,Gabe Garza,Kingsville King,95.53,256.28,142.88,249.48,648.64,Unlimited,SBD,M,
Boys,99.79,7,Domink Salinas,Falfurrias,98.34,226.8,158.76,204.12,589.67,Unlimited,SBD,M,
Boys,99.79,8,Jevin Gonzalez,Cotulla,91.17,215.46,174.63,183.7,573.79,Unlimited,SBD,M,
Boys,99.79,9,Justin Leal,Mathis,98.16,219.99,142.88,158.76,521.63,Unlimited,SBD,M,
Boys,99.79,10,Kyler Longoria,Sinton,96.34,185.97,111.13,158.76,455.86,Unlimited,SBD,M,
Boys,99.79,11,Noah Christian,Alice,98.43,156.49,108.86,170.1,435.45,Unlimited,SBD,M,
Boys,99.79,DQ,Orlando Cantu,Alice,97.52,,,,,Unlimited,SBD,M,
Boys,99.79,DQ,Zane Aldaco,Cotulla,94.44,235.87,,,,Unlimited,SBD,M,
Boys,99.79,DQ,Aiden Gonzalez,Cotulla,97.52,,,,,Unlimited,SBD,M,
Boys,99.79,DQ,Kayden Leal,Victoria West,93.17,,,,,Unlimited,SBD,M,
Boys,99.79,DQ,Dominic Smith,Beeville Jones,96.16,,,,,Unlimited,SBD,M,
Boys,99.79,DQ,Keith Kilough,Rockport-Fulton,95.53,192.78,,,,Unlimited,SBD,M,
Boys,109.77,1,Ramiro Cantu,Alice,108.86,263.08,226.8,238.14,728.02,Unlimited,SBD,M,
Boys,109.77,2,Ethan Sanchez,Beeville Jones,106.5,265.35,149.69,233.6,648.64,Unlimited,SBD,M,
Boys,109.77,3,Jessy Garcia,Kingsville King,108.77,215.46,149.69,226.8,591.94,Unlimited,SBD,M,
Boys,109.77,4,Lucas Brown,Corpus Christi Calallen,104.69,197.31,156.49,222.26,576.06,Unlimited,SBD,M,
Boys,109.77,5,Tanner Starling,Rockport-Fulton,108.41,204.12,154.22,199.58,557.92,Unlimited,SBD,M,
Boys,109.77,6,Joe Gonzales,Sinton,106.87,226.8,131.54,181.44,539.77,Unlimited,SBD,M,
Boys,109.77,7,Levi Dias,Rockport-Fulton,101.79,201.85,129.27,167.83,498.95,Unlimited,SBD,M,
Boys,109.77,8,Efrain Carranza,Mathis,108.77,195.04,124.74,174.63,494.42,Unlimited,SBD,M,
Boys,109.77,9,Aaron Skeeter,Rockport-Fulton,109.04,163.29,113.4,145.15,421.84,Unlimited,SBD,M,
Boys,109.77,DQ,Leonidas Rodriguez,Kingsville King,105.6,210.92,,,,Unlimited,SBD,M,
Boys,109.77,DQ,Phoenix Hernandez,Sinton,105.41,,,,,Unlimited,SBD,M,
Boys,109.77,DQ,Fidel Alvarez,Cotulla,109.77,,,,,Unlimited,SBD,M,
Boys,124.74,1,Arnulfo Puga,Beeville Jones,123.38,317.51,204.12,251.74,773.37,Unlimited,SBD,M,
Boys,124.74,2,Manuel Hernandez,Beeville Jones,120.75,285.76,197.31,204.12,687.19,Unlimited,SBD,M,
Boys,124.74,3,Alejandro Delgado,Agua Dulce,123.92,272.16,183.7,226.8,682.66,Unlimited,SBD,M,
Boys,124.74,4,Jesus Avila,Victoria West,117.03,265.35,192.78,195.04,653.17,Unlimited,SBD,M,
Boys,124.74,5,Chris Goodman,Ben Bolt-Palito Blanco,120.29,278.96,170.1,197.31,646.37,Unlimited,SBD,M,
Boys,124.74,6,Demetrio Rios,Corpus Christi Tuloso-Midway,114.76,240.4,158.76,219.99,619.15,Unlimited,SBD,M,
Boys,124.74,7,Clyde Veliz,Mathis,122.2,265.35,147.42,174.63,587.4,Unlimited,SBD,M,
Boys,124.74,8,Elijah Floes,Victoria West,124.47,238.14,147.42,183.7,569.26,Unlimited,SBD,M,
Boys,124.74,9,Omar Vargas,Sinton,119.48,235.87,136.08,192.78,564.72,Unlimited,SBD,M,
Boys,124.74,10,Esai Escobar,Alice,123.83,217.72,122.47,215.46,555.65,Unlimited,SBD,M,
Boys,124.74,11,Samuel Benavides,Falfurrias,119.29,222.26,117.93,190.51,530.7,Unlimited,SBD,M,
Boys,124.74,12,Mike Carranza,Mathis,121.11,210.92,136.08,158.76,505.76,Unlimited,SBD,M,
Boys,124.74,13,Esai Junrez,Pettus,123.1,161.03,97.52,167.83,426.38,Unlimited,SBD,M,
Boys,124.74,DQ,Marcelo Armenta,Beeville Jones,116.3,249.48,127.01,,,Unlimited,SBD,M,
Boys,124.74,DQ,Chris Rhone,Kingsville King,120.38,,,,,Unlimited,SBD,M,
Boys,139.71,1,Braden Merritt,Victoria West,137.89,317.51,226.8,254.01,798.32,Unlimited,SBD,M,
Boys,139.71,2,Arnold Munoz,Corpus Christi Calallen,132.9,319.78,197.31,238.14,755.23,Unlimited,SBD,M,
Boys,139.71,3,Jesus Martinez,Beeville Jones,138.44,265.35,210.92,256.28,732.55,Unlimited,SBD,M,
Boys,139.71,4,Adam Alvarez,Corpus Christi Tuloso-Midway,137.35,272.16,183.7,226.8,682.66,Unlimited,SBD,M,
Boys,139.71,5,Estevan Cabrera,Alice,128.37,251.74,201.85,197.31,650.91,Unlimited,SBD,M,
Boys,139.71,6,Tyler Rosales,Alice,132,233.6,170.1,192.78,596.47,Unlimited,SBD,M,
Boys,139.71,7,Jason Valdez,Sinton,129.09,233.6,149.69,195.04,578.33,Unlimited,SBD,M,
Boys,139.71,8,Nick DelBosque,Alice,128.82,226.8,147.42,161.03,535.24,Unlimited,SBD,M,
Boys,139.71,9,Antonio Ramos,Corpus Christi Tuloso-Midway,131.09,165.56,120.2,201.85,487.61,Unlimited,SBD,M,
Boys,139.71,10,Issac Guererro,Sinton,128.55,181.44,106.59,185.97,474,Unlimited,SBD,M,
Boys,139.71,11,Kasen Knupp,Corpus Christi Calallen,127.1,158.76,124.74,188.24,471.74,Unlimited,SBD,M,
Boys,139.71,DQ,Matt Rodriguez,Victoria West,135.81,,,,,Unlimited,SBD,M,
Boys,139.71+,1,Peyton Torres,Beeville Jones,160.66,317.51,231.33,249.48,798.32,Unlimited,SBD,M,
Boys,139.71+,2,Jaeden Fraire,Victoria West,147.78,317.51,210.92,226.8,755.23,Unlimited,SBD,M,
Boys,139.71+,3,Carson Sifuentes,Corpus Christi Calallen,145.06,254.01,204.12,213.19,671.32,Unlimited,SBD,M,
Boys,139.71+,4,Kevin Rios,Mathis,142.07,192.78,167.83,229.06,589.67,Unlimited,SBD,M,
Boys,139.71+,5,Felix Trejo,Pettus,164.38,124.74,72.57,151.95,349.27,Unlimited,SBD,M,
Boys,139.71+,DQ,Patrick Davis,Corpus Christi Calallen,169.73,265.35,,,,Unlimited,SBD,M,
Boys,139.71+,DQ,Luka Garza,Agua Dulce,140.61,,,,,Unlimited,SBD,M,
