Sex,Equipment,Division,WeightClassKg,Name,BodyweightKg,Best3SquatKg,Best3BenchKg,Best3DeadliftKg,TotalKg,Event,BirthDate,Place
F,Bare,Amateur Juniors 20-23,44,Kayla Ferretti,43.73,77.11,56.7,106.59,240.4,SBD,,1
F,Bare,Amateur Teen 14-15,44,Mara Messick,43.54,34.02,24.95,54.43,113.4,SBD,,1
F,Bare,Amateur Masters 45-49,52,Vicky Garcia,51.44,88.45,49.9,120.2,258.55,SBD,,1
F,Bare,Amateur Submasters 33-39,52,Julia Palmieri,51.8,88.45,52.16,120.2,260.82,SBD,,1
F,Bare,Pro Masters 40-44,56,Brittany Kutcher Camarote,55.34,102.06,56.7,142.88,301.64,SBD,,1
F,Wraps,Amateur Open,56,Emma Chastain,53.52,77.11,43.09,117.93,238.14,SBD,,1
F,Wraps,Amateur Teen 14-15,56,Natalie Kayal,55.52,90.72,56.7,115.67,263.08,SBD,,1
F,Wraps,Amateur Juniors 20-23,60,Kendra Neideigh,59.87,86.18,47.63,95.25,229.06,SBD,,1
F,Wraps,Amateur Teen 14-15,60,Olivia Antonacci,56.97,72.57,45.36,102.06,219.99,SBD,,2
F,Wraps,Amateur Teen 14-15,60,Viviana Iavarone,58.33,72.57,45.36,117.93,235.87,SBD,,1
F,Bare,Amateur Masters 40-44,67.5,Jennifer Breneman,66.77,90.72,65.77,111.13,267.62,SBD,,1
F,Bare,Amateur Open,67.5,Stephanie Heslep,66.59,95.25,56.7,122.47,274.42,SBD,,1
F,Bare,Amateur Submasters 33-39,67.5,Victoria McFarland,65.77,120.2,88.45,147.42,356.07,SBD,,1
F,Wraps,Amateur Masters 55-59,67.5,Beth Vulopas,66.5,92.99,56.7,108.86,258.55,SBD,,1
F,Wraps,Amateur Masters 60-64,67.5,Donna Hribar,65.05,72.57,54.43,108.86,235.87,SBD,,1
F,Wraps,Amateur Masters 65-69,67.5,Terri Groves,65.68,92.99,49.9,113.4,256.28,SBD,,1
F,Wraps,Amateur Open,67.5,Hannah McNally,62.05,122.47,65.77,129.27,317.51,SBD,,1
F,Wraps,Amateur Submasters 33-39,67.5,Erin Riebel,65.86,92.99,63.5,95.25,251.74,SBD,,1
F,Wraps,Amateur Teen 18-19,67.5,Allison Good,66.95,129.27,65.77,127.01,322.05,SBD,,1
F,Bare,Amateur Teen 14-15,75,Audrey Bennett,74.12,108.86,52.16,115.67,276.69,SBD,,1
F,Bare,Amateur Open,75,Summer Neideigh,74.48,108.86,52.16,127.01,288.03,SBD,,1
F,Wraps,Military Amateur Open,75,Mayson Smith,74.93,129.27,74.84,149.69,353.8,SBD,,1
F,Wraps,Pro Masters 50-54,75,Valarie Johnson,73.94,113.4,63.5,140.61,317.51,SBD,,1
F,Wraps,Amateur Masters 50-54,82.5,Tamu King,78.65,92.99,54.43,104.33,251.74,SBD,,1
F,Wraps,Amateur Masters 65-69,82.5,Karen O'Brien,81.1,92.99,54.43,108.86,256.28,SBD,,1
F,Wraps,Amateur Open,82.5,Khelsea Borror,80.74,122.47,63.5,151.95,337.93,SBD,,1
F,Wraps,Amateur Submasters 33-39,82.5,Khelsea Borror,80.74,122.47,63.5,151.95,337.93,SBD,,1
F,Wraps,Pro Masters 50-54,82.5,Cara Papp,78.93,72.57,52.16,88.45,213.19,SBD,,1
F,Bare,Amateur Open,90,Natasha Chauhan,89.63,61.23,63.5,131.54,256.28,SBD,,1
F,Wraps,Amateur Open,90,Miranda Falk,86.73,115.67,56.7,161.03,333.39,SBD,,2
F,Sleeves,Amateur Open,90,CJ Crossett,89.18,124.74,79.38,145.15,349.27,SBD,,1
F,Wraps,Amateur Submasters 33-39,90,Jessica Battle,89.72,122.47,74.84,138.35,335.66,SBD,,1
F,Bare,Amateur Juniors 20-23,100,Hailee Owsiany,97.89,102.06,56.7,129.27,288.03,SBD,,1
F,Bare,Amateur Open,110,Katie Lloyd,107.41,104.33,56.7,147.42,308.44,SBD,,2
F,Bare,Amateur Open,110,Victoria Nichols,109.59,142.88,83.91,156.49,383.29,SBD,,1
F,Wraps,Amateur Open,110,Bekah Good,103.51,129.27,83.91,142.88,356.07,SBD,,1
F,Bare,Amateur Masters 40-44,110+,Michelle Lehman,126.28,117.93,72.57,131.54,322.05,SBD,,1
F,Bare,Amateur Open,110+,Hannah Litchfield,130.36,86.18,74.84,133.81,294.84,SBD,,2
F,Bare,Amateur Open,110+,Lindsey Sawrie,124.38,151.95,81.65,154.22,387.82,SBD,,1
F,Bare,Amateur Submasters 33-39,110+,Christina Jobes,122.83,63.5,38.56,97.52,199.58,SBD,,1
F,Wraps,Amateur Open,110+,Taylor Godby,127.1,124.74,61.23,136.08,322.05,SBD,,2
F,Wraps,Amateur Open,110+,Ciara Samuels,111.77,136.08,72.57,149.69,358.34,SBD,,1
F,Bare,Amateur Juniors 20-23,75,Christine Bloom,71.49,,47.63,113.4,161.03,BD,,1
F,Bare,Amateur Masters 40-44,75,Kimberly McClure,72.39,,61.23,115.67,176.9,BD,,1
F,Raw,Amateur Masters 50-54,100,Melissa Bogart,95.25,,65.77,108.86,174.63,BD,,1
F,Bare,Amateur Open,110+,Robyn Sheehan,128.19,,90.72,167.83,258.55,BD,,3
F,Bare,Amateur Masters 40-44,110+,Robyn Sheehan,128.19,,90.72,167.83,258.55,BD,,2
F,Bare,Amateur Masters 45-49,60,April Versace,59.33,49.9,34.02,,83.91,SB,,1
M,Bare,Amateur Teen 14-15,67.5,Colin Belcher,66.41,158.76,83.91,174.63,417.3,SBD,,1
M,Bare,Amateur Open,67.5,Colin Belcher,66.41,158.76,83.91,174.63,417.3,SBD,,1
M,Wraps,Pro Open,67.5,Jared Simmons,64.59,244.94,161.03,145.15,551.11,SBD,,1
M,Bare,Amateur Masters 40-44,75,Daniel McCauley,73.3,142.88,88.45,165.56,396.89,SBD,,1
M,Bare,Amateur Open,75,Michael Dillon,74.12,158.76,129.27,210.92,498.95,SBD,,1
M,Wraps,Amateur Masters 45-49,75,Jack Crist,73.57,142.88,97.52,183.7,424.11,SBD,,1
M,Wraps,Amateur Open,75,Maurice Lanier,72.48,170.1,124.74,192.78,487.61,SBD,,1
M,Bare,Amateur Open,82.5,Heath Newcomer,81.47,158.76,124.74,222.26,505.76,SBD,,2
M,Bare,Amateur Open,82.5,Elijah Thigpen-Frazier,81.74,238.14,145.15,229.06,612.35,SBD,,1
M,Bare,Amateur Teen 14-15,82.5,Mason Hocker,81.92,81.65,47.63,81.65,210.92,SBD,,1
M,Wraps,Amateur Juniors 20-23,82.5,Jake Pavero,80.1,204.12,124.74,272.16,601.01,SBD,,1
M,Wraps,Amateur Masters 45-49,82.5,Zachary Bitler,82.28,115.67,92.99,195.04,403.7,SBD,,1
M,Wraps,Amateur Open,82.5,Patrick James Somaine,81.47,183.7,133.81,210.92,528.44,SBD,,1
M,Bare,Police Pro Open,90,Nicholas Squires,87,204.12,147.42,244.94,596.47,SBD,,1
M,Bare,Pro Open,90,Steven Grosso,88.45,215.46,106.59,,,SBD,,DQ
M,Wraps,Amateur Masters 40-44,90,Keith Guse,83.19,163.29,117.93,170.1,451.32,SBD,,2
M,Wraps,Amateur Masters 40-44,90,Michael Manske,88.9,170.1,111.13,217.72,498.95,SBD,,1
M,Wraps,Amateur Open,90,Gabe Rupert,89.54,206.38,136.08,206.38,548.85,SBD,,1
M,Wraps,Amateur Teen 16-17,90,Jax Norris,88.45,172.37,86.18,161.03,419.57,SBD,,1
M,Wraps,Pro Masters 50-54,90,Jim Savage,88.9,213.19,154.22,254.01,621.42,SBD,,1
M,Wraps,Pro Open,90,Jim Savage,88.9,213.19,154.22,254.01,621.42,SBD,,2
M,Wraps,Pro Open,90,Ryan Poeldnurk,89.36,244.94,156.49,272.16,673.58,SBD,,1
M,Wraps,Police Pro Open,90,Ryan Poeldnurk,89.36,244.94,156.49,272.16,673.58,SBD,,1
M,Wraps,Pro Submasters 33-39,90,Tyler Justin Jaworowski,88,192.78,154.22,249.48,596.47,SBD,,1
M,Bare,Amateur Teen 16-17,100,Michael Viereck,96.16,195.04,122.47,281.23,598.74,SBD,,1
M,Wraps,Amateur Teen 16-17,100,Frankie Curci,95.25,204.12,129.27,226.8,560.19,SBD,,1
M,Wraps,Amateur Teen 16-17,110,Jayden Cosentino,108.77,192.78,115.67,199.58,508.02,SBD,,1
M,Wraps,Pro Submasters 33-39,110,Justin Cosentino,104.51,210.92,131.54,233.6,576.06,SBD,,1
M,Wraps,Pro Open,125,Adam Soley,122.74,317.51,172.37,294.84,784.71,SBD,,1
M,Wraps,Amateur Juniors 20-23,140,Michael J Pursh,129.64,244.94,120.2,235.87,601.01,SBD,,1
M,Wraps,Amateur Open,82.5,John Baker,82.19,149.69,,,149.69,S,,1
M,Bare,Amateur Open,110,Ryan Feehan,109.59,,183.7,226.8,410.5,BD,,2
M,Bare,Amateur Teen 16-17,67.5,Samuel Stotler,64.77,,102.06,,102.06,B,,1
M,Bare,Amateur Masters 70-74,100,Donald Longlott,97.52,,111.13,,111.13,B,,1
M,Bare,Pro Masters 50-54,140+,Abe Vragazis,143.97,,158.76,,158.76,B,,1
M,Wraps,Amateur Teen 16-17,82.5,Arash Golposhan,81.65,197.31,124.74,233.6,555.65,SBD,,1
M,Bare,Amateur Juniors 20-23,90,Aaron Babu,88.9,204.12,115.67,240.4,560.19,SBD,,1
M,Bare,Amateur Juniors 20-23,100,Dylan Farnsworth,98.16,161.03,113.4,208.65,483.08,SBD,,2
M,Bare,Amateur Juniors 20-23,100,Jeremy Dyck,93.62,174.63,133.81,183.7,492.15,SBD,,1
M,Bare,Amateur Masters 65-69,100,Greg Arnie Arnsberger,95.35,142.88,115.67,158.76,417.3,SBD,,1
M,Bare,Amateur Open,100,Sean McCormick,99.79,192.78,106.59,215.46,514.83,SBD,,4
M,Bare,Amateur Open,100,Michael Buckley,98.52,172.37,129.27,222.26,523.9,SBD,,3
M,Bare,Amateur Open,100,Dominic Disipio,96.98,249.48,172.37,224.53,646.37,SBD,,2
M,Bare,Amateur Open,100,John Naessig,98.16,240.4,149.69,265.35,655.44,SBD,,1
M,Wraps,Amateur Masters 45-49,100,Bryan Martin,99.79,217.72,156.49,244.94,619.15,SBD,,1
M,Wraps,Amateur Open,100,Michael Wortell,98.07,204.12,120.2,226.8,551.11,SBD,,4
M,Wraps,Amateur Open,100,Derek Baum,96.34,199.58,120.2,256.28,576.06,SBD,,3
M,Wraps,Amateur Open,100,Bryan Martin,99.79,217.72,156.49,244.94,619.15,SBD,,2
M,Wraps,Amateur Open,100,DJ Seegars,96.62,206.38,154.22,258.55,619.15,SBD,,1
M,Wraps,Pro Open,100,Lance Camasta,99.97,185.97,124.74,231.33,542.04,SBD,,2
M,Wraps,Pro Open,100,Jacob Smith #31,98.52,301.64,197.31,297.1,796.05,SBD,,1
M,Wraps,Amateur Juniors 20-23,110,Jaret Stroup,103.51,222.26,138.35,272.16,632.76,SBD,,1
M,Wraps,Amateur Open,110,Joshua Russell #1,107.5,206.38,136.08,222.26,564.72,SBD,,2
M,Wraps,Amateur Open,110,Dalton Tubbs,109.86,260.82,149.69,247.21,657.71,SBD,,1
M,Wraps,Amateur Submasters 33-39,110,Donald Simcox,105.32,213.19,145.15,231.33,589.67,SBD,,1
M,Wraps,Pro Open,110,Jonathan Kaczmarczyk,109.41,292.57,151.95,288.03,732.55,SBD,,2
M,Wraps,Pro Open,110,Hunter Hockenberry,107.14,299.37,190.51,272.16,762.04,SBD,,1
M,Bare,Amateur Open,125,Ethan Stell,118.66,226.8,149.69,238.14,614.62,SBD,,1
M,Wraps,Amateur Open,125,Connor McCloskey,122.2,151.95,92.99,165.56,410.5,SBD,,2
M,Wraps,Amateur Open,125,Kyle O'Dell,122.11,195.04,117.93,226.8,539.77,SBD,,1
M,Wraps,Amateur Submasters 33-39,125,John Danley,115.3,183.7,115.67,219.99,519.36,SBD,,1
M,Wraps,Police Pro Open,125,Alexis Scarborough,124.56,256.28,208.65,267.62,732.55,SBD,,1
M,Wraps,Pro Open,125,Alexander Punchello,116.85,303.91,210.92,61.23,576.06,SBD,,2
M,Wraps,Pro Open,125,Michael Marino,117.84,276.69,167.83,310.71,755.23,SBD,,1
M,Wraps,Pro Submasters 33-39,125,Michael Marino,117.84,276.69,167.83,310.71,755.23,SBD,,1
M,Unlimited,Pro Open,125,Dylan Godby,123.92,181.44,145.15,183.7,510.29,SBD,,1
M,Wraps,Amateur Masters 45-49,140,Matthew N Gordner,127.91,181.44,142.88,185.97,510.29,SBD,,2
M,Wraps,Amateur Masters 45-49,140,Matt Frailey,133.08,229.06,178.26,216.82,623.69,SBD,,1
M,Multi-ply,Pro Juniors 20-23,140+,Rene Bernier,152.95,408.23,306.17,283.5,997.9,SBD,,1
M,Multi-ply,Pro Open,140+,Rene Bernier,152.95,408.23,306.17,283.5,997.9,SBD,,1
M,Wraps,Pro Open,140+,Mason Dechert,158.67,362.87,213.19,344.73,920.79,SBD,,1
M,Single-ply,Amateur Open,140+,Troy Simko,163.93,394.63,226.8,342.46,963.88,SBD,,1
M,Unlimited,Pro Masters 45-49,140+,Joe Gitke,161.48,340.19,197.31,226.8,764.3,SBD,,1
M,Unlimited,Pro Open,140+,Aaron Schulenburg,148.6,362.87,276.69,256.28,895.84,SBD,,1
M,Bare,Amateur Juniors 20-23,100,Ethan Blair,92.9,,133.81,190.51,324.32,BD,,1
M,Bare,Amateur Open,110,Lacy Jackson,107.32,,149.69,278.96,428.64,BD,,1
M,Bare,Pro Open,110,Buddy Mancuso,107.23,,210.92,301.64,512.56,BD,,1
M,Bare,Pro Submasters 33-39,110,Buddy Mancuso,107.23,,210.92,301.64,512.56,BD,,1
M,Raw,Military Amateur Masters 50+,110,Eric Blake,103.06,,106.59,151.95,258.55,BD,,1
M,Bare,Pro Open,110,Charles Enlow,109.68,,185.97,,185.97,B,,1
M,Unlimited,Pro Open,125,Eric Beruck,119.39,,322.05,,322.05,B,,2
M,Unlimited,Pro Masters 40-44,125,Eric Beruck,119.39,,322.05,,322.05,B,,1
M,Raw,Police Pro Open,140,Joe Sauble,127.01,,208.65,,208.65,B,,1
M,Bare,Amateur Masters 45-49,140+,Devin Keller,141.88,,183.7,,183.7,B,,1
M,Raw,Amateur Teen 16-17,100,Joseph Smith,96.25,,,317.51,317.51,D,,1
M,Bare,Pro Masters 40-44,125,Brian Sheehan,122.2,,,267.62,267.62,D,,1
M,Bare,Amateur Open,110,Derek Scott,107.23,,,272.16,272.16,D,,1
