Division,WeightClassKg,Place,Name,Team,BodyweightKg,Best3SquatKg,Best3BenchKg,Best3DeadliftKg,TotalKg,Equipment,Event,Sex,BirthDate
Boys,55.79,1,Marcelo Patino,Frisco Emerson,53.89,142.88,70.31,179.17,392.36,Unlimited,SBD,M,
Boys,59.87,1,Braylon Porrel,Carrollton Ranchview,57.15,151.95,83.91,165.56,401.43,Unlimited,SBD,M,
Boys,59.87,2,Vivaan Shurma,Frisco Heritage,57.15,147.42,74.84,165.56,387.82,Unlimited,SBD,M,
Boys,67.13,1,Xavien Dean,Carrollton Ranchview,63.5,161.03,92.99,156.49,410.5,Unlimited,SBD,M,
Boys,67.13,2,Adrian Cordero,Dallas Conrad,62.96,136.08,68.04,156.49,360.61,Unlimited,SBD,M,
Boys,67.13,3,Jamir Loveless,Carrollton Ranchview,66.77,102.06,68.04,122.47,292.57,Unlimited,SBD,M,
Boys,67.13,4,Ikililu Balogun,Carrollton Ranchview,61.23,138.35,68.04,,206.38,Unlimited,SB,M,
Boys,74.84,1,Austin Stutts,Frisco Wakeland,74.57,235.87,158.76,231.33,625.96,Unlimited,SBD,M,
Boys,74.84,2,Rocky Sylvester,Lewisville Marcus,73.21,165.56,129.27,185.97,480.81,Unlimited,SBD,M,
Boys,74.84,3,Kevin Gilkes,Carrollton Smith,73.75,151.95,111.13,142.88,405.97,Unlimited,SBD,M,
Boys,74.84,5,Terrance Harris,Carrollton Ranchview,74.39,136.08,97.52,147.42,381.02,Unlimited,SBD,M,
Boys,74.84,6,Jared Terry,Carrollton Smith,68.31,142.88,83.91,142.88,369.68,Unlimited,SBD,M,
Boys,74.84,8,Tyler Varnes,West Mesquite,71.85,129.27,79.38,138.35,347,Unlimited,SBD,M,
Boys,74.84,9,Zayvion Green,Dallas Lincoln,73.75,97.52,81.65,142.88,322.05,Unlimited,SBD,M,
Boys,74.84,10,Zycherian Eagle,Dallas White,73.57,,86.18,,86.18,Unlimited,B,M,
Boys,74.84,DQ,Wodrick Varnes,West Mesquite,67.77,,,,,Unlimited,SBD,M,
Boys,74.84,DQ,Kiere Drake,Carrollton Smith,68.76,,,,,Unlimited,SBD,M,
Boys,74.84,DQ,Josiah Samuel,Carrollton Ranchview,68.95,142.88,97.52,,,Unlimited,SBD,M,
Boys,82.1,1,Gavin Rogers,Lewisville Marcus,78.11,201.85,136.08,192.78,530.7,Unlimited,SBD,M,
Boys,82.1,2,Austin Brown #6,Carrollton Ranchview,78.47,142.88,86.18,136.08,365.14,Unlimited,SBD,M,
Boys,82.1,3,Isaac Robinson,Dallas Lincoln,77.47,120.2,92.99,142.88,356.07,Unlimited,SBD,M,
Boys,82.1,4,Kyshun Green,West Mesquite,75.02,136.08,108.86,145.15,390.09,Unlimited,SBD,M,
Boys,82.1,4,Joshua Ellis,Dallas White,81.47,170.1,,,170.1,Unlimited,S,M,
Boys,82.1,5,Rodney Chelweche,Dallas White,76.11,129.27,,,129.27,Unlimited,S,M,
Boys,82.1,7,Gabriel Haesecke,Carrollton Smith,74.93,129.27,97.52,136.08,362.87,Unlimited,SBD,M,
Boys,89.81,1,Yusuf Adgebite,Duncanville,84.55,192.78,113.4,183.7,489.88,Unlimited,SBD,M,
Boys,89.81,2,Jaydon Redmon,West Mesquite,82.92,179.17,102.06,188.24,469.47,Unlimited,SBD,M,
Boys,89.81,3,Kamari Carter,West Mesquite,83.91,156.49,102.06,179.17,437.72,Unlimited,SBD,M,
Boys,89.81,4,Isaac Bolanos,Dallas Conrad,87.36,129.27,74.84,138.35,342.46,Unlimited,SBD,M,
Boys,89.81,5,Joseph Munguia,Dallas White,88.09,124.74,72.57,142.88,340.19,Unlimited,SBD,M,
Boys,99.79,1,Will Harrison,Lewisville Marcus,94.71,233.6,151.95,247.21,632.76,Unlimited,SBD,M,
Boys,99.79,2,Leon Wood,Duncanville,97.89,263.08,142.88,195.04,601.01,Unlimited,SBD,M,
Boys,99.79,3,Lamar Lewis,Lewisville Marcus,98.25,206.38,156.49,210.92,573.79,Unlimited,SBD,M,
Boys,99.79,4,Armand Walton,Duncanville,96.89,219.99,120.2,226.8,566.99,Unlimited,SBD,M,
Boys,99.79,5,Pedro Pacheco,Carrollton Ranchview,97.52,172.37,124.74,161.03,458.13,Unlimited,SBD,M,
Boys,99.79,6,Tremper Raul,Dallas White,96.89,115.67,45.36,133.81,294.84,Unlimited,SBD,M,
Boys,99.79,7,DaeDrion Holley,West Mesquite,96.43,170.1,,,170.1,Unlimited,S,M,
Boys,109.77,1,Alex Sanchez,West Mesquite,105.14,179.17,122.47,204.12,505.76,Unlimited,SBD,M,
Boys,109.77,2,John Richardson,Duncanville,108.77,190.51,131.54,183.7,505.76,Unlimited,SBD,M,
Boys,109.77,3,Ja'Quavioun Poe,West Mesquite,104.6,176.9,111.13,183.7,471.74,Unlimited,SBD,M,
Boys,109.77,4,Christopher Allen,Dallas Lincoln,102.24,149.69,92.99,201.85,444.52,Unlimited,SBD,M,
Boys,109.77,5,Kaiden Scott,Dallas Lincoln,100.79,113.4,88.45,197.31,399.16,Unlimited,SBD,M,
Boys,109.77,7,Roderrick Richardson,Dallas White,104.96,113.4,70.31,138.35,322.05,Unlimited,SBD,M,
Boys,124.74,1,Chris Williams,Carrollton Ranchview,124.28,272.16,167.83,265.35,705.34,Unlimited,SBD,M,
Boys,124.74,2,Kamden Dyess,Frisco Heritage,122.56,249.48,183.7,215.46,648.64,Unlimited,SBD,M,
Boys,124.74,3,Ethan Davis,Duncanville,117.03,183.7,124.74,183.7,492.15,Unlimited,SBD,M,
Boys,124.74,4,Dieko Akinnawonu,Duncanville,124.28,183.7,113.4,183.7,480.81,Unlimited,SBD,M,
Boys,124.74,5,Aden Williams,Duncanville,124.38,142.88,113.4,183.7,439.98,Unlimited,SBD,M,
Boys,124.74,6,Bruce Gomez Funes,Dallas Conrad,109.86,129.27,68.04,174.63,371.95,Unlimited,SBD,M,
Boys,124.74,6,Cooper Kelsey,Carrollton Ranchview,113.4,176.9,92.99,158.76,428.64,Unlimited,SBD,M,
Boys,124.74,7,Josh Rose,Dallas Lincoln,113.62,102.06,111.13,197.31,410.5,Unlimited,SBD,M,
Boys,124.74,8,Machi Lamb,Dallas White,123.2,170.1,86.18,151.95,408.23,Unlimited,SBD,M,
Boys,124.74,9,Carter Hudson,Lewisville Marcus,110.22,156.49,79.38,142.88,378.75,Unlimited,SBD,M,
Boys,124.74,10,Jamail Jones,Carrollton Smith,121.83,190.51,156.49,,347,Unlimited,SB,M,
Boys,124.74,11,Kendrick Pearson,Dallas Lincoln,119.57,102.06,95.25,142.88,340.19,Unlimited,SBD,M,
Boys,124.74,12,Yurem Perez,Dallas White,116.94,197.31,102.06,,299.37,Unlimited,SB,M,
Boys,124.74,13,Kevin Soto,Dallas Lincoln,111.95,77.11,63.5,115.67,256.28,Unlimited,SBD,M,
Boys,139.71,1,Dylan Williams,Duncanville,130.36,219.99,149.69,190.51,560.19,Unlimited,SBD,M,
Boys,139.71,2,Marcus Watson,West Mesquite,128.64,204.12,138.35,215.46,557.92,Unlimited,SBD,M,
Boys,139.71,3,Dj Jennings,Duncanville,125.01,183.7,111.13,179.17,474,Unlimited,SBD,M,
Boys,139.71,4,Edgar Fallad,Dallas Conrad,137.89,142.88,97.52,149.69,390.09,Unlimited,SBD,M,
Boys,139.71,5,Jimmy Graham,Lewisville Marcus,138.89,242.67,124.74,,367.41,Unlimited,SB,M,
Boys,139.71+,1,Khalil Johnson,Carrollton Ranchview,140.61,254.01,158.76,204.12,616.89,Unlimited,SBD,M,
Boys,139.71+,2,Adrian Gonzales,Carrollton Ranchview,155.58,176.9,102.06,204.12,483.08,Unlimited,SBD,M,
Boys,139.71+,3,Kentrell Pearson,Dallas Lincoln,142.52,102.06,83.91,113.4,299.37,Unlimited,SBD,M,
Boys,,NS,Jonah Daniels,Carrollton Ranchview,,,,,,Unlimited,SBD,M,
Boys,,NS,Roabert Earl-Singleton,Duncanville,,,,,,Unlimited,SBD,M,
Boys,,NS,Kevin Ford,Duncanville,,,,,,Unlimited,SBD,M,
