Division,WeightClassKg,Place,Name,Team,BodyweightKg,Best3SquatKg,Best3BenchKg,Best3DeadliftKg,TotalKg,Equipment,Event,Sex,BirthDate
Girls,44.23,1,Suzanne Greene,Killeen Harker Heights,44.09,72.57,49.9,88.45,210.92,Unlimited,SBD,F,
Girls,44.23,2,Mercedes Reyes,Del Valle,38.1,72.57,36.29,68.04,176.9,Unlimited,SBD,F,
Girls,44.23,3,Zoey Smith,Elgin,44.18,61.23,29.48,77.11,167.83,Unlimited,SBD,F,
Girls,44.23,DQ,Sol Selvera,Killeen Harker Heights,44,,,,,Unlimited,SBD,F,
Girls,47.85,1,Gaby Niswanger,College Station,47.45,142.88,68.04,117.93,328.85,Unlimited,SBD,F,
Girls,47.85,2,Clarissa Gutierrez,Killeen Harker Heights,47.63,95.25,54.43,95.25,244.94,Unlimited,SBD,F,
Girls,47.85,3,McKenna Baethge,Seguin,45.81,79.38,40.82,90.72,210.92,Unlimited,SBD,F,
Girls,47.85,4,Clarissa Lara,Del Valle,47.17,74.84,38.56,81.65,195.04,Unlimited,SBD,F,
Girls,47.85,5,Joanna Carranza,Seguin,47.81,61.23,43.09,81.65,185.97,Unlimited,SBD,F,
Girls,47.85,6,Althea Rice,Killeen Harker Heights,46.99,52.16,27.22,72.57,151.95,Unlimited,SBD,F,
Girls,47.85,DQ,Anastasia Vielma,College Station,46.08,,,,,Unlimited,SBD,F,
Girls,47.85,DQ,Kayla Shellhammer,Buda Hays,46.63,111.13,,,,Unlimited,SBD,F,
Girls,51.94,1,Paige Bridenstine,Killeen Harker Heights,51.8,147.42,81.65,136.08,365.14,Unlimited,SBD,F,
Girls,51.94,2,Anna Scarborough,College Station,49.99,138.35,72.57,120.2,331.12,Unlimited,SBD,F,
Girls,51.94,3,Rylie Dlouhy,Taylor,50.89,117.93,74.84,131.54,324.32,Unlimited,SBD,F,
Girls,51.94,4,Arsci Lopez,Del Valle,49.44,113.4,65.77,124.74,303.91,Unlimited,SBD,F,
Girls,51.94,5,Elizabeth Nunez,Elgin,50.98,113.4,54.43,124.74,292.57,Unlimited,SBD,F,
Girls,51.94,6,Maria Yanez,Elgin,51.94,113.4,56.7,117.93,288.03,Unlimited,SBD,F,
Girls,51.94,7,Emma Hagerman,College Station,51.89,115.67,49.9,113.4,278.96,Unlimited,SBD,F,
Girls,51.94,8,Olga Aceituno,Seguin,49.26,95.25,43.09,102.06,240.4,Unlimited,SBD,F,
Girls,51.94,9,Joselyn Reyna,Luling,48.81,92.99,43.09,88.45,224.53,Unlimited,SBD,F,
Girls,51.94,10,Courtney Shepard,Elgin,51.17,79.38,38.56,90.72,208.65,Unlimited,SBD,F,
Girls,51.94,11,Estrella Orantes,Luling,49.53,74.84,43.09,83.91,201.85,Unlimited,SBD,F,
Girls,51.94,DQ,Zoe Moore,Taylor,51.35,86.18,52.16,,,Unlimited,SBD,F,
Girls,56.02,1,Reese Sigler,College Station,55.25,154.22,70.31,124.74,349.27,Unlimited,SBD,F,
Girls,56.02,2,Keileigh Bowie,College Station,55.52,147.42,74.84,111.13,333.39,Unlimited,SBD,F,
Girls,56.02,3,Carollicia Roberts,Killeen Harker Heights,55.16,117.93,65.77,136.08,319.78,Unlimited,SBD,F,
Girls,56.02,4,Rosie Driscoll,Del Valle,55.43,106.59,79.38,108.86,294.84,Unlimited,SBD,F,
Girls,56.02,5,Hailey Ruiz,Buda Hays,55.61,108.86,49.9,113.4,272.16,Unlimited,SBD,F,
Girls,56.02,6,Alexia Smith,Buda Hays,55.52,102.06,58.97,108.86,269.89,Unlimited,SBD,F,
Girls,56.02,7,Paige Findley,Killeen Harker Heights,54.43,83.91,61.23,111.13,256.28,Unlimited,SBD,F,
Girls,56.02,8,Madison Woehl,Elgin,55.97,99.79,56.7,99.79,256.28,Unlimited,SBD,F,
Girls,56.02,9,Natalie Melgar,Buda Johnson,55.16,88.45,56.7,97.52,242.67,Unlimited,SBD,F,
Girls,56.02,10,Maya Gordon,Seguin,53.25,88.45,36.29,115.67,240.4,Unlimited,SBD,F,
Girls,56.02,11,Dakota Davenport,Bastrop Cedar Creek,55.88,102.06,34.02,92.99,229.06,Unlimited,SBD,F,
Girls,56.02,12,Melani Velasquez,Elgin,55.16,92.99,29.48,97.52,219.99,Unlimited,SBD,F,
Girls,56.02,13,Abby Zamora,Luling,53.89,70.31,38.56,92.99,201.85,Unlimited,SBD,F,
Girls,56.02,14,Raygen Liscum,Marble Falls,52.98,74.84,38.56,86.18,199.58,Unlimited,SBD,F,
Girls,56.02,15,Julia Crowder,Luling,55.43,77.11,38.56,81.65,197.31,Unlimited,SBD,F,
Girls,56.02,16,La'Niya Myers,Killeen Harker Heights,54.88,54.43,29.48,88.45,172.37,Unlimited,SBD,F,
Girls,56.02,17,Isabella Tollison,Waco,54.7,54.43,27.22,68.04,149.69,Unlimited,SBD,F,
Girls,56.02,DQ,Brooke Goertz,Bastrop Cedar Creek,55.79,,,,,Unlimited,SBD,F,
Girls,56.02,DQ,Hannah Villarreal,Buda Johnson,55.7,124.74,68.04,117.93,,Unlimited,SBD,F,
Girls,56.02,DQ,Kaitlyn Garcia,Luling,54.88,88.45,43.09,88.45,,Unlimited,SBD,F,
Girls,60.1,1,Kylie Kramer,College Station,60.06,147.42,61.23,138.35,347,Unlimited,SBD,F,
Girls,60.1,2,Kayshawna Fields,Taylor,59.15,127.01,68.04,142.88,337.93,Unlimited,SBD,F,
Girls,60.1,3,Susy Esqueda,Del Valle,58.97,124.74,56.7,142.88,324.32,Unlimited,SBD,F,
Girls,60.1,4,Alexis Bermea,Killeen Harker Heights,60.06,113.4,70.31,133.81,317.51,Unlimited,SBD,F,
Girls,60.1,5,Alexia Garcia-Campuzano,Buda Hays,58.06,127.01,58.97,127.01,312.98,Unlimited,SBD,F,
Girls,60.1,6,Azalea Palacios,Elgin,60.06,117.93,61.23,127.01,306.17,Unlimited,SBD,F,
Girls,60.1,7,Danielle King,Elgin,60.06,106.59,68.04,115.67,290.3,Unlimited,SBD,F,
Girls,60.1,8,Raina Miranda,Del Valle,59.42,90.72,54.43,117.93,263.08,Unlimited,SBD,F,
Girls,60.1,9,Kimberly Orantes,Luling,58.79,106.59,43.09,111.13,260.82,Unlimited,SBD,F,
Girls,60.1,10,Bethany Robles,Taylor,58.15,95.25,52.16,99.79,247.21,Unlimited,SBD,F,
Girls,60.1,11,Alia Castillo,Luling,59.6,92.99,43.09,92.99,229.06,Unlimited,SBD,F,
Girls,60.1,12,Gabriela Chacon,Seguin,60.06,86.18,36.29,90.72,213.19,Unlimited,SBD,F,
Girls,60.1,13,Cheyenne Blair,Marble Falls,58.33,81.65,40.82,86.18,208.65,Unlimited,SBD,F,
Girls,60.1,14,Emmalie Coronado,Waco,59.87,45.36,27.22,74.84,147.42,Unlimited,SBD,F,
Girls,60.1,DQ,Kylie Frensley,Buda Johnson,59.87,,,,,Unlimited,SBD,F,
Girls,60.1,DQ,Leah King,Buda Hays,59.87,108.86,,,,Unlimited,SBD,F,
Girls,60.1,DQ,Jolie Aguirre,Buda Johnson,59.24,111.13,61.23,,,Unlimited,SBD,F,
Girls,67.36,1,Megan Kelnar,Buda Hays,63.68,147.42,81.65,129.27,358.34,Unlimited,SBD,F,
Girls,67.36,2,Madison Barber,College Station,63.78,142.88,61.23,149.69,353.8,Unlimited,SBD,F,
Girls,67.36,3,Jacee Oehlert,College Station,63.59,136.08,63.5,136.08,335.66,Unlimited,SBD,F,
Girls,67.36,4,Ri'Queleigh Holmes-Grant,Taylor,64.79,129.27,79.38,127.01,335.66,Unlimited,SBD,F,
Girls,67.36,5,Anilisa Martinez,Buda Johnson,66.41,117.93,70.31,140.61,328.85,Unlimited,SBD,F,
Girls,67.36,6,Kat Postert,San Marcos,63.32,127.01,56.7,136.08,319.78,Unlimited,SBD,F,
Girls,67.36,7,Giovanna Castellani,College Station,62.78,129.27,52.16,120.2,301.64,Unlimited,SBD,F,
Girls,67.36,8,Nataly Rosado,Buda Hays,64.59,120.2,70.31,111.13,301.64,Unlimited,SBD,F,
Girls,67.36,9,Dominique Armstrong,Del Valle,66.68,111.13,63.5,111.13,285.76,Unlimited,SBD,F,
Girls,67.36,10,Jesslynn Rodriguez,Luling,61.6,106.59,52.16,124.74,283.5,Unlimited,SBD,F,
Girls,67.36,11,Natalie Hinojosa,Buda Johnson,65.23,104.33,54.43,117.93,276.69,Unlimited,SBD,F,
Girls,67.36,12,Brielle Housmans,Austin Lake Travis,66.5,102.06,70.31,102.06,274.42,Unlimited,SBD,F,
Girls,67.36,13,Camryn Hall,Bastrop Cedar Creek,66.13,95.25,63.5,108.86,267.62,Unlimited,SBD,F,
Girls,67.36,14,Natalie Sanchez,Luling,67.31,92.99,45.36,104.33,242.67,Unlimited,SBD,F,
Girls,67.36,15,Milan Rothe,Austin Lake Travis,60.87,88.45,52.16,92.99,233.6,Unlimited,SBD,F,
Girls,67.36,16,Serena Perez,Waco,65.77,99.79,43.09,88.45,231.33,Unlimited,SBD,F,
Girls,67.36,17,Cindy Palomino-Cruz,Del Valle,63.96,88.45,45.36,81.65,215.46,Unlimited,SBD,F,
Girls,67.36,18,Samantha Fidler,Bastrop Cedar Creek,61.69,74.84,43.09,83.91,201.85,Unlimited,SBD,F,
Girls,67.36,19,Olivia Milliner,Killeen Harker Heights,66.32,65.77,43.09,92.99,201.85,Unlimited,SBD,F,
Girls,67.36,DQ,Cameron Ferris,Buda Hays,61.6,,,,,Unlimited,SBD,F,
Girls,67.36,DQ,Adriana Hyatt,Austin Lake Travis,67.13,,,,,Unlimited,SBD,F,
Girls,67.36,DQ,Emma Sealy,Marble Falls,67.13,,,,,Unlimited,SBD,F,
Girls,75.07,1,Fayth Ham,College Station,70.94,215.46,99.79,174.63,489.88,Unlimited,SBD,F,
Girls,75.07,2,Trinity Brown,Luling,71.76,138.35,61.23,147.42,347,Unlimited,SBD,F,
Girls,75.07,3,Scarlett Whitacre,College Station,73.12,136.08,68.04,117.93,322.05,Unlimited,SBD,F,
Girls,75.07,4,Isabel Rios,Taylor,68.13,108.86,61.23,127.01,297.1,Unlimited,SBD,F,
Girls,75.07,5,Ashley Harris,College Station,70.4,122.47,63.5,102.06,288.03,Unlimited,SBD,F,
Girls,75.07,6,Alexis Dalton,Marble Falls,71.58,104.33,45.36,122.47,272.16,Unlimited,SBD,F,
Girls,75.07,7,Camila Beltran,Seguin,68.13,102.06,45.36,106.59,254.01,Unlimited,SBD,F,
Girls,75.07,8,Brooke Garza,Buda Hays,71.3,70.31,54.43,102.06,226.8,Unlimited,SBD,F,
Girls,75.07,9,Jaylinn Hinojosa,Marble Falls,73.66,79.38,31.75,92.99,204.12,Unlimited,SBD,F,
Girls,75.07,10,Nevaeh Taylor,Waco,73.75,70.31,29.48,86.18,185.97,Unlimited,SBD,F,
Girls,75.07,11,Fatima Ali,Pflugerville Weiss,72.03,65.77,29.48,83.91,179.17,Unlimited,SBD,F,
Girls,82.33,1,Hannah Scott,College Station,79.92,167.83,81.65,156.49,405.97,Unlimited,SBD,F,
Girls,82.33,2,Ainsley Orme,Elgin,76.48,176.9,77.11,133.81,387.82,Unlimited,SBD,F,
Girls,82.33,3,Alivia Saenz,Buda Johnson,81.1,151.95,92.99,136.08,381.02,Unlimited,SBD,F,
Girls,82.33,4,Isabelle Vasquez-Villarreal,Buda Hays,78.56,142.88,77.11,147.42,367.41,Unlimited,SBD,F,
Girls,82.33,5,Zaeda Houff,Del Valle,80.74,117.93,61.23,151.95,331.12,Unlimited,SBD,F,
Girls,82.33,6,Yim Christenson,Buda Johnson,79.74,115.67,56.7,129.27,301.64,Unlimited,SBD,F,
Girls,82.33,7,Katelyn Castilleja,Luling,78.2,108.86,58.97,124.74,292.57,Unlimited,SBD,F,
Girls,82.33,8,Montana Davenport,Bastrop Cedar Creek,80.2,102.06,54.43,102.06,258.55,Unlimited,SBD,F,
Girls,82.33,DQ,Chloe Humphreys,Marble Falls,82.1,,,,,Unlimited,SBD,F,
Girls,90.04,1,Maria Romero,Buda Hays,86.18,165.56,81.65,149.69,396.89,Unlimited,SBD,F,
Girls,90.04,2,Sydnee Williams,Seguin,87.54,122.47,70.31,142.88,335.66,Unlimited,SBD,F,
Girls,90.04,3,Jesenika Saiz,Killeen Harker Heights,88.81,120.2,88.45,122.47,331.12,Unlimited,SBD,F,
Girls,90.04,4,Paola Losoya,Del Valle,84.82,115.67,74.84,138.35,328.85,Unlimited,SBD,F,
Girls,90.04,5,Marley Vasquez,Seguin,88.18,113.4,58.97,108.86,281.23,Unlimited,SBD,F,
Girls,90.04,6,Stephanie Mendoza,Del Valle,84.82,92.99,56.7,127.01,276.69,Unlimited,SBD,F,
Girls,90.04,7,Jade Valenzuela,Comfort,83.64,115.67,43.09,106.59,265.35,Unlimited,SBD,F,
Girls,90.04,8,Kierstyn Plumlee,Marble Falls,82.64,79.38,31.75,90.72,201.85,Unlimited,SBD,F,
Girls,90.04,DQ,Bryce Sands,Manor New Tech,89.81,,,,,Unlimited,SBD,F,
Girls,90.04,DQ,Allison D'Ariggo,Pflugerville Connally,87.54,95.25,,,,Unlimited,SBD,F,
Girls,90.04,DQ,Desaray Salazar,Waco,84.46,88.45,,,,Unlimited,SBD,F,
Girls,100.02,1,Emily Thompson,College Station,93.98,172.37,90.72,147.42,410.5,Unlimited,SBD,F,
Girls,100.02,2,Anna Williams,Austin Lake Travis,95.71,129.27,83.91,136.08,349.27,Unlimited,SBD,F,
Girls,100.02,3,Jami Robledo,Elgin,93.8,136.08,81.65,108.86,326.59,Unlimited,SBD,F,
Girls,100.02,4,Lunden Embers,Luling,96.07,120.2,68.04,129.27,317.51,Unlimited,SBD,F,
Girls,100.02,5,Kourtney Withers,Seguin,99.97,104.33,54.43,111.13,269.89,Unlimited,SBD,F,
Girls,100.02,6,Michelle Villa,Comfort,99.97,117.93,47.63,92.99,258.55,Unlimited,SBD,F,
Girls,100.02,DQ,Elizabeth Lydic,Taylor,94.26,111.13,86.18,,,Unlimited,SBD,F,
Girls,100.02,DQ,Paige Kemp,Marble Falls,99.79,,,,,Unlimited,SBD,F,
Girls,117.71,1,Nya Kirk Jones,Elgin,109.5,226.8,127.01,176.9,530.7,Unlimited,SBD,F,
Girls,117.71,2,Ashley Grande,Buda Johnson,105.6,176.9,97.52,176.9,451.32,Unlimited,SBD,F,
Girls,117.71,3,Shaylin Franklin,Seguin,115.85,165.56,95.25,179.17,439.98,Unlimited,SBD,F,
Girls,117.71,4,Krista Randig,Taylor,107.5,149.69,97.52,147.42,394.63,Unlimited,SBD,F,
Girls,117.71,5,Sophia Plonka,Taylor,115.03,140.61,88.45,140.61,369.68,Unlimited,SBD,F,
Girls,117.71,6,Leslie Martinez,Elgin,101.06,117.93,49.9,115.67,283.5,Unlimited,SBD,F,
Girls,117.71,7,Jaclyn Taft,Killeen Harker Heights,104.69,104.33,52.16,122.47,278.96,Unlimited,SBD,F,
Girls,117.71,8,Layla Franklin,Seguin,100.24,90.72,56.7,117.93,265.35,Unlimited,SBD,F,
Girls,117.71,DQ,Analise Frias,Taylor,117.48,,,,,Unlimited,SBD,F,
Girls,117.71+,1,Kynadi Blackmore,Elgin,117.75,163.29,72.57,145.15,381.02,Unlimited,SBD,F,
Girls,117.71+,2,Sierra Leos,Seguin,151.5,127.01,68.04,156.49,351.53,Unlimited,SBD,F,
Girls,117.71+,3,Jordan Dunn,Pflugerville Weiss,169.1,90.72,52.16,113.4,256.28,Unlimited,SBD,F,
Girls,117.71+,4,Destiny Ward,Waco,124.01,61.23,45.36,97.52,204.12,Unlimited,SBD,F,
Girls,117.71+,DQ,Heavenly Turner,Taylor,130.63,165.56,88.45,,,Unlimited,SBD,F,
Girls,,NS,Ruth Rodriguez,Pflugerville Weiss,,,,,,Unlimited,SBD,F,
