Division,WeightClassKg,Place,Name,Team,BodyweightKg,Best3SquatKg,Best3BenchKg,Best3DeadliftKg,TotalKg,Equipment,Event,Sex,BirthDate
Girls,44.23,1,Bralyn Wright,Alvord,44.18,97.52,52.16,97.52,247.21,Unlimited,SBD,F,
Girls,44.23,2,Roxanne Stovall,Valley View,43.82,99.79,40.82,95.25,235.87,Unlimited,SBD,F,
Girls,44.23,3,Taylor Craig,Bells,42.55,92.99,47.63,74.84,215.46,Unlimited,SBD,F,
Girls,44.23,4,Traycee Stewart,Bowie,43.09,77.11,38.56,83.91,199.58,Unlimited,SBD,F,
Girls,44.23,5,Adrienne Johnson,Bells,44,79.38,38.56,81.65,199.58,Unlimited,SBD,F,
Girls,44.23,6,Ella Koberick,Tioga,43.64,77.11,31.75,81.65,190.51,Unlimited,SBD,F,
Girls,44.23,7,Sophia Payne,Bells,43.82,70.31,31.75,79.38,181.44,Unlimited,SBD,F,
Girls,44.23,8,Maggie Rhoades,Wichita Falls City View,39.01,70.31,34.02,68.04,172.37,Unlimited,SBD,F,
Girls,44.23,9,Samantha Garcia,Henrietta,41.37,61.23,31.75,70.31,163.29,Unlimited,SBD,F,
Girls,44.23,NS,Keira White,Boyd,,,,,,Unlimited,SBD,F,
Girls,47.85,1,Sara Westbrook,Leonard,47.08,99.79,63.5,104.33,267.62,Unlimited,SBD,F,
Girls,47.85,2,Avery Fox,Alvord,46.63,106.59,52.16,92.99,251.74,Unlimited,SBD,F,
Girls,47.85,3,Lillian Patterson,Brock,46.63,97.52,49.9,90.72,238.14,Unlimited,SBD,F,
Girls,47.85,4,Breigh Gaylor,Alvord,46.08,92.99,52.16,90.72,235.87,Unlimited,SBD,F,
Girls,47.85,5,Sophia Salas,Whitesboro,45.09,86.18,40.82,97.52,224.53,Unlimited,SBD,F,
Girls,47.85,6,Eva Jordan,Bells,45.54,90.72,52.16,77.11,219.99,Unlimited,SBD,F,
Girls,47.85,7,Jenna Clark,Howe,47.45,83.91,43.09,83.91,210.92,Unlimited,SBD,F,
Girls,47.85,8,Ruthie Valdez,Breckenridge,46.63,72.57,31.75,99.79,204.12,Unlimited,SBD,F,
Girls,47.85,9,Harper Granelli,Bells,46.9,79.38,40.82,83.91,204.12,Unlimited,SBD,F,
Girls,47.85,10,Keira Bracewell,Wichita Falls City View,47.54,74.84,43.09,81.65,199.58,Unlimited,SBD,F,
Girls,47.85,11,Anahi Rodriguez,Bells,46.9,72.57,34.02,65.77,172.37,Unlimited,SBD,F,
Girls,47.85,DQ,Cara Schkade,Breckenridge,47.26,90.72,,,,Unlimited,SBD,F,
Girls,47.85,DQ,Tristan Gardner,Bells,46.08,,,,,Unlimited,SBD,F,
Girls,47.85,DQ,Sonora Flowers,Honey Grove,47.72,99.79,43.09,,,Unlimited,SBD,F,
Girls,51.94,1,Lily Helgren,Bells,50.89,127.01,74.84,122.47,324.32,Unlimited,SBD,F,
Girls,51.94,2,Kiana Allen,Peaster,51.89,122.47,61.23,122.47,306.17,Unlimited,SBD,F,
Girls,51.94,3,Laisha Johnson,Bowie,51.53,115.67,63.5,115.67,294.84,Unlimited,SBD,F,
Girls,51.94,4,Kyla Barauskas,Wichita Falls City View,50.08,106.59,54.43,111.13,272.16,Unlimited,SBD,F,
Girls,51.94,5,Avery Compton #1,Leonard,50.8,104.33,61.23,106.59,272.16,Unlimited,SBD,F,
Girls,51.94,6,Shelby Adams,Wichita Falls City View,50.35,108.86,52.16,108.86,269.89,Unlimited,SBD,F,
Girls,51.94,7,Jessica Ransom,Boyd,50.17,99.79,54.43,111.13,265.35,Unlimited,SBD,F,
Girls,51.94,8,Kailynne Clay,Pilot Point,50.8,88.45,47.63,95.25,231.33,Unlimited,SBD,F,
Girls,51.94,9,Allison Fuller,Brock,49.35,92.99,40.82,95.25,229.06,Unlimited,SBD,F,
Girls,51.94,10,Raine Buckley,Blue Ridge,51.17,90.72,43.09,95.25,229.06,Unlimited,SBD,F,
Girls,51.94,11,Cambri Heuring,Henrietta,51.44,92.99,38.56,90.72,222.26,Unlimited,SBD,F,
Girls,51.94,12,Allison Charles,Honey Grove,51.44,79.38,31.75,81.65,192.78,Unlimited,SBD,F,
Girls,51.94,13,Jaclyn Duran,Dallas A+,49.8,74.84,27.22,83.91,185.97,Unlimited,SBD,F,
Girls,51.94,14,Nanelly Duran,Dallas A+,50.98,70.31,31.75,83.91,185.97,Unlimited,SBD,F,
Girls,51.94,15,Victoria Martinez,Howe,51.89,61.23,29.48,68.04,158.76,Unlimited,SBD,F,
Girls,51.94,DQ,Katelyn Brenner,Millsap,48.17,,,,,Unlimited,SBD,F,
Girls,51.94,DQ,Kelsey Erlandson,Callisburg,50.98,79.38,,,,Unlimited,SBD,F,
Girls,51.94,DQ,Callie Shirley,Breckenridge,50.44,108.86,47.63,,,Unlimited,SBD,F,
Girls,51.94,DQ,Cathryn Royal,Perrin-Whitt,51.35,63.5,,,,Unlimited,SBD,F,
Girls,56.02,1,Jenna King,Whitesboro,54.25,136.08,65.77,151.95,353.8,Unlimited,SBD,F,
Girls,56.02,2,Kailyn Freeman,Leonard,54.88,113.4,68.04,117.93,299.37,Unlimited,SBD,F,
Girls,56.02,3,Ciera McKey,Millsap,52.98,108.86,68.04,117.93,294.84,Unlimited,SBD,F,
Girls,56.02,4,Kylie Watt,Ponder,54.88,117.93,54.43,106.59,278.96,Unlimited,SBD,F,
Girls,56.02,5,Xitlali Padilla,Bonham,53.25,117.93,58.97,99.79,276.69,Unlimited,SBD,F,
Girls,56.02,6,Cassidy Skelton,Alvord,55.07,117.93,61.23,95.25,274.42,Unlimited,SBD,F,
Girls,56.02,7,Abby Cavender,Leonard,55.25,104.33,58.97,111.13,274.42,Unlimited,SBD,F,
Girls,56.02,8,Natalie Pirkey,Nocona,54.98,99.79,54.43,102.06,256.28,Unlimited,SBD,F,
Girls,56.02,9,Cambree Fromme,Leonard,55.43,92.99,54.43,106.59,254.01,Unlimited,SBD,F,
Girls,56.02,10,Abby Vanbuskirk,Perrin-Whitt,53.34,97.52,40.82,113.4,251.74,Unlimited,SBD,F,
Girls,56.02,11,Ava Norma,Millsap,55.61,104.33,43.09,104.33,251.74,Unlimited,SBD,F,
Girls,56.02,12,Allison Hardwick,Collinsville,54.7,92.99,49.9,104.33,247.21,Unlimited,SBD,F,
Girls,56.02,13,Haley Gaught,Boyd,52.8,90.72,49.9,104.33,244.94,Unlimited,SBD,F,
Girls,56.02,14,Emma Dowling,Paradise,53.89,90.72,54.43,97.52,242.67,Unlimited,SBD,F,
Girls,56.02,15,Dantea Helms,Wichita Falls City View,52.44,86.18,54.43,99.79,240.4,Unlimited,SBD,F,
Girls,56.02,16,Debra Willmon,Tioga,53.61,90.72,45.36,102.06,238.14,Unlimited,SBD,F,
Girls,56.02,17,Kat Clevinger,Boyd,53.25,90.72,45.36,97.52,233.6,Unlimited,SBD,F,
Girls,56.02,18,Kayley Laubhan,Howe,54.98,90.72,49.9,90.72,231.33,Unlimited,SBD,F,
Girls,56.02,19,Raeli Hall,Collinsville,55.07,81.65,54.43,95.25,231.33,Unlimited,SBD,F,
Girls,56.02,20,Kace Ford,Collinsville,55.79,92.99,47.63,90.72,231.33,Unlimited,SBD,F,
Girls,56.02,21,Dayan Miranda,Henrietta,52.98,83.91,34.02,106.59,224.53,Unlimited,SBD,F,
Girls,56.02,22,Kimberly Gonzalez,Howe,52.07,81.65,34.02,83.91,199.58,Unlimited,SBD,F,
Girls,56.02,23,Abbygayle Christian,Bells,54.52,70.31,31.75,88.45,190.51,Unlimited,SBD,F,
Girls,56.02,DQ,Ryane Dickey,Henrietta,52.98,65.77,31.75,,,Unlimited,SBD,F,
Girls,56.02,DQ,Logan Rhodes,Collinsville,54.34,,,,,Unlimited,SBD,F,
Girls,56.02,DQ,Brissa Fernandez,Paradise,54.43,95.25,47.63,,,Unlimited,SBD,F,
Girls,60.1,1,Audra Nivens,Alvord,56.7,133.81,81.65,124.74,340.19,Unlimited,SBD,F,
Girls,60.1,2,Kelcy Watkins,Alvord,58.15,133.81,74.84,129.27,337.93,Unlimited,SBD,F,
Girls,60.1,3,Alectra Mask,Bells,57.52,131.54,86.18,117.93,335.66,Unlimited,SBD,F,
Girls,60.1,4,Daisy Mora,Alvord,58.69,140.61,61.23,131.54,333.39,Unlimited,SBD,F,
Girls,60.1,5,Tien Hoang,Wichita Falls City View,58.51,136.08,61.23,133.81,331.12,Unlimited,SBD,F,
Girls,60.1,6,Korina Wallace,Leonard,57.61,120.2,86.18,120.2,326.59,Unlimited,SBD,F,
Girls,60.1,7,Kinley Russell,Bowie,58.33,122.47,70.31,117.93,310.71,Unlimited,SBD,F,
Girls,60.1,8,Tatum Daniels,Bells,59.69,127.01,72.57,102.06,301.64,Unlimited,SBD,F,
Girls,60.1,9,Kalissa Chambers,Leonard,57.42,111.13,74.84,113.4,299.37,Unlimited,SBD,F,
Girls,60.1,10,Castle Chandler,Pilot Point,59.24,104.33,54.43,113.4,272.16,Unlimited,SBD,F,
Girls,60.1,11,Christina Harper,Pottsboro,59.24,102.06,49.9,108.86,260.82,Unlimited,SBD,F,
Girls,60.1,12,Mallory Nesler,Millsap,56.97,92.99,52.16,104.33,249.48,Unlimited,SBD,F,
Girls,60.1,13,Leighton Todd,Whitesboro,58.69,92.99,40.82,113.4,247.21,Unlimited,SBD,F,
Girls,60.1,14,Loralee Edmonson,Peaster,57.97,90.72,49.9,102.06,242.67,Unlimited,SBD,F,
Girls,60.1,15,Jennifer Rodriguez,Pilot Point,59.87,106.59,45.36,90.72,242.67,Unlimited,SBD,F,
Girls,60.1,16,Emma Gray,Archer City,58.42,86.18,52.16,97.52,235.87,Unlimited,SBD,F,
Girls,60.1,17,Caycee Woodard,Honey Grove,58.51,102.06,47.63,83.91,233.6,Unlimited,SBD,F,
Girls,60.1,18,Addyson Beaty,Boyd,56.97,90.72,49.9,90.72,231.33,Unlimited,SBD,F,
Girls,60.1,19,Kaylee Baxter,Leonard,57.79,92.99,40.82,92.99,226.8,Unlimited,SBD,F,
Girls,60.1,20,Maleigha Aguilar,Boyd,57.61,83.91,38.56,102.06,224.53,Unlimited,SBD,F,
Girls,60.1,21,Aislyn Bracewell,Wichita Falls City View,57.42,81.65,47.63,79.38,208.65,Unlimited,SBD,F,
Girls,60.1,22,Louren Conner,Archer City,57.42,70.31,34.02,86.18,190.51,Unlimited,SBD,F,
Girls,60.1,23,Molly Bement,Honey Grove,57.33,68.04,34.02,81.65,183.7,Unlimited,SBD,F,
Girls,60.1,24,Amanda Hodgson,Brock,57.97,65.77,29.48,74.84,170.1,Unlimited,SBD,F,
Girls,60.1,NS,Sadie Longley,Henrietta,,,,,,Unlimited,SBD,F,
Girls,60.1,DQ,Leah Frith,Whitesboro,59.15,136.08,65.77,,,Unlimited,SBD,F,
Girls,67.36,1,Jaycie Grisham,Howe,64.14,161.03,83.91,131.54,376.48,Unlimited,SBD,F,
Girls,67.36,2,Lily Kimsey,Millsap,65.77,142.88,86.18,142.88,371.95,Unlimited,SBD,F,
Girls,67.36,3,Skyler Brannan,Whitesboro,64.77,147.42,70.31,131.54,349.27,Unlimited,SBD,F,
Girls,67.36,4,Alyssa Adams,Wichita Falls City View,65.68,151.95,74.84,120.2,347,Unlimited,SBD,F,
Girls,67.36,5,Abby Grady,Leonard,62.23,140.61,68.04,124.74,333.39,Unlimited,SBD,F,
Girls,67.36,6,Hallie Bulmer,Callisburg,66.13,136.08,74.84,120.2,331.12,Unlimited,SBD,F,
Girls,67.36,7,Haigan Thompson,Breckenridge,67.22,136.08,61.23,131.54,328.85,Unlimited,SBD,F,
Girls,67.36,8,Jessi Torres,Chico,62.32,129.27,70.31,124.74,324.32,Unlimited,SBD,F,
Girls,67.36,9,Meridythe Metzler,Bowie,66.22,122.47,65.77,127.01,315.25,Unlimited,SBD,F,
Girls,67.36,10,Jalee Tiller,Henrietta,66.22,117.93,56.7,124.74,299.37,Unlimited,SBD,F,
Girls,67.36,11,Chloe Russum,Bells,65.32,117.93,74.84,104.33,297.1,Unlimited,SBD,F,
Girls,67.36,12,McKayla Hedrick,Chico,61.96,115.67,61.23,117.93,294.84,Unlimited,SBD,F,
Girls,67.36,13,Ashley Cuevas,Chico,66.5,117.93,61.23,113.4,292.57,Unlimited,SBD,F,
Girls,67.36,14,Arhiana Aguilar,Brock,65.32,122.47,45.36,115.67,283.5,Unlimited,SBD,F,
Girls,67.36,15,Annastasia McAdams,Sadler S & S Consolidated,66.5,115.67,49.9,117.93,283.5,Unlimited,SBD,F,
Girls,67.36,16,Nevaeh Denney,Boyd,62.78,111.13,49.9,120.2,281.23,Unlimited,SBD,F,
Girls,67.36,17,Sadie Hartman,Millsap,63.68,111.13,63.5,106.59,281.23,Unlimited,SBD,F,
Girls,67.36,18,Emily Hicks,Pilot Point,65.77,120.2,54.43,104.33,278.96,Unlimited,SBD,F,
Girls,67.36,19,Chasity Dunn,Millsap,64.14,102.06,56.7,117.93,276.69,Unlimited,SBD,F,
Girls,67.36,20,Tyler Fenley,Sadler S & S Consolidated,63.23,108.86,43.09,108.86,260.82,Unlimited,SBD,F,
Girls,67.36,21,Angel Valeria,Boyd,65.77,108.86,49.9,102.06,260.82,Unlimited,SBD,F,
Girls,67.36,22,Alicia Izaguirre,Ponder,66.59,111.13,52.16,97.52,260.82,Unlimited,SBD,F,
Girls,67.36,23,Makayla Thomison,Callisburg,62.14,104.33,49.9,97.52,251.74,Unlimited,SBD,F,
Girls,67.36,24,Maria Alvarez,Honey Grove,61.69,102.06,45.36,99.79,247.21,Unlimited,SBD,F,
Girls,67.36,25,Aubree Egenbacher,Henrietta,64.41,92.99,45.36,102.06,240.4,Unlimited,SBD,F,
Girls,67.36,26,Landry Luebbert,Watauga Harvest Christian Academy,65.77,97.52,36.29,102.06,235.87,Unlimited,SBD,F,
Girls,67.36,27,Saylor Puckett,Millsap,65.95,95.25,45.36,92.99,233.6,Unlimited,SBD,F,
Girls,67.36,28,Jaylee Holmes,Perrin-Whitt,63.87,97.52,34.02,90.72,222.26,Unlimited,SBD,F,
Girls,67.36,29,Reynolds Trinity,Collinsville,64.86,83.91,43.09,92.99,219.99,Unlimited,SBD,F,
Girls,67.36,30,Sydney McFarlane,Lindsay,64.32,86.18,31.75,90.72,208.65,Unlimited,SBD,F,
Girls,67.36,31,Ava Vaughan,Bells,62.6,77.11,40.82,74.84,192.78,Unlimited,SBD,F,
Girls,67.36,DQ,Charlotte McNamara,Petrolia,63.23,154.22,,,,Unlimited,SBD,F,
Girls,67.36,DQ,Tori Pender,Santo,64.86,113.4,,,,Unlimited,SBD,F,
Girls,67.36,DQ,Kate Frarer,Pilot Point,66.32,111.13,,,,Unlimited,SBD,F,
Girls,67.36,DQ,Montana Pruett,Ponder,62.14,115.67,61.23,,,Unlimited,SBD,F,
Girls,75.07,1,Jayci Malone,Alvord,71.12,154.22,88.45,136.08,378.75,Unlimited,SBD,F,
Girls,75.07,2,Ashley Aguirre,Bowie,68.95,151.95,79.38,138.35,369.68,Unlimited,SBD,F,
Girls,75.07,3,Naomi Gonzalez,Bonham,72.67,154.22,68.04,142.88,365.14,Unlimited,SBD,F,
Girls,75.07,4,Katlyn Farringer,Wichita Falls City View,71.94,149.69,90.72,120.2,360.61,Unlimited,SBD,F,
Girls,75.07,5,Abreanna Smith,Whitewright,71.03,136.08,72.57,138.35,347,Unlimited,SBD,F,
Girls,75.07,6,Tylar Olsen,Whitesboro,73.3,136.08,56.7,142.88,335.66,Unlimited,SBD,F,
Girls,75.07,7,Kyra Davis,Sadler S & S Consolidated,72.3,127.01,70.31,136.08,333.39,Unlimited,SBD,F,
Girls,75.07,8,Isabelle Layton,Sadler S & S Consolidated,72.39,129.27,63.5,136.08,328.85,Unlimited,SBD,F,
Girls,75.07,9,Cabel Perkins,Breckenridge,73.03,133.81,63.5,131.54,328.85,Unlimited,SBD,F,
Girls,75.07,10,Teri-Lyn Tollett,Whitesboro,69.67,142.88,45.36,136.08,324.32,Unlimited,SBD,F,
Girls,75.07,11,Sierra Hacker,Ponder,71.94,122.47,65.77,129.27,317.51,Unlimited,SBD,F,
Girls,75.07,12,Miriam Nieto,Leonard,67.77,113.4,68.04,113.4,294.84,Unlimited,SBD,F,
Girls,75.07,13,Jaylynn Huff,Howe,70.58,136.08,58.97,92.99,288.03,Unlimited,SBD,F,
Girls,75.07,14,Aalyiah Salazar,Breckenridge,70.85,117.93,52.16,104.33,274.42,Unlimited,SBD,F,
Girls,75.07,15,Julie Basurto,Millsap,68.49,113.4,40.82,117.93,272.16,Unlimited,SBD,F,
Girls,75.07,16,Jadda Mclain,Pottsboro,69.94,117.93,47.63,106.59,272.16,Unlimited,SBD,F,
Girls,75.07,17,Erica Quintin,Tioga,67.95,92.99,43.09,113.4,249.48,Unlimited,SBD,F,
Girls,75.07,18,Carly Hedges,Petrolia,72.39,95.25,54.43,95.25,244.94,Unlimited,SBD,F,
Girls,75.07,19,Sophie Kelly,Blue Ridge,72.67,97.52,43.09,104.33,244.94,Unlimited,SBD,F,
Girls,75.07,20,Kennadee Langham,Perrin-Whitt,67.4,90.72,34.02,117.93,242.67,Unlimited,SBD,F,
Girls,75.07,21,Temperance Pereira,Wichita Falls City View,71.67,86.18,58.97,81.65,226.8,Unlimited,SBD,F,
Girls,75.07,22,Madison Schwartz,Paradise,71.58,79.38,45.36,86.18,210.92,Unlimited,SBD,F,
Girls,75.07,23,Mikayla Reed,Tioga,70.94,81.65,31.75,92.99,206.38,Unlimited,SBD,F,
Girls,75.07,24,Landry Anderson,Perrin-Whitt,70.03,72.57,27.22,97.52,197.31,Unlimited,SBD,F,
Girls,75.07,NS,Aaliyah Byrom,Collinsville,,,,,,Unlimited,SBD,F,
Girls,75.07,DQ,Allayna Fehr,Henrietta,73.21,99.79,43.09,,,Unlimited,SBD,F,
Girls,82.33,1,Ashlyn Stanford,Decatur Victory Christian School,79.11,161.03,102.06,170.1,433.18,Unlimited,SBD,F,
Girls,82.33,2,Kerstin Wolfe,Bowie,77.38,163.29,88.45,147.42,399.16,Unlimited,SBD,F,
Girls,82.33,3,Makamdyn Mayfield,Alvord,79.29,156.49,86.18,149.69,392.36,Unlimited,SBD,F,
Girls,82.33,4,Andrea Mora,Alvord,79.02,163.29,68.04,158.76,390.09,Unlimited,SBD,F,
Girls,82.33,5,Cindy DeLeon,Pilot Point,80.2,158.76,70.31,151.95,381.02,Unlimited,SBD,F,
Girls,82.33,6,Olivia Hildebrand,Whitesboro,79.38,140.61,70.31,145.15,356.07,Unlimited,SBD,F,
Girls,82.33,7,Angie Aguilera,Collinsville,76.2,138.35,58.97,133.81,331.12,Unlimited,SBD,F,
Girls,82.33,8,Taylor Lane,Boyd,81.74,124.74,70.31,117.93,312.98,Unlimited,SBD,F,
Girls,82.33,9,Kaidence Glenn,Millsap,75.75,120.2,74.84,115.67,310.71,Unlimited,SBD,F,
Girls,82.33,10,Mekenzie Wilson,Boyd,75.75,113.4,65.77,120.2,299.37,Unlimited,SBD,F,
Girls,82.33,11,Faith Renteria,Callisburg,79.38,124.74,58.97,113.4,297.1,Unlimited,SBD,F,
Girls,82.33,12,Allison Bowles,Henrietta,77.38,124.74,58.97,111.13,294.84,Unlimited,SBD,F,
Girls,82.33,13,Emily Lawson,Pilot Point,80.74,127.01,54.43,113.4,294.84,Unlimited,SBD,F,
Girls,82.33,14,Paige Shields,Millsap,79.65,117.93,61.23,113.4,292.57,Unlimited,SBD,F,
Girls,82.33,15,Maddie Alonzo,Pottsboro,79.83,115.67,63.5,111.13,290.3,Unlimited,SBD,F,
Girls,82.33,16,Raylee Stopka,Sadler S & S Consolidated,81.1,108.86,61.23,113.4,283.5,Unlimited,SBD,F,
Girls,82.33,17,Katelyn Pond,Pilot Point,78.2,113.4,54.43,108.86,276.69,Unlimited,SBD,F,
Girls,82.33,18,Sabrina LaRue,Bonham,75.93,104.33,63.5,104.33,272.16,Unlimited,SBD,F,
Girls,82.33,19,Kassidy Vick,Ponder,79.47,117.93,49.9,104.33,272.16,Unlimited,SBD,F,
Girls,82.33,20,Cadence Smith,Santo,77.93,95.25,38.56,117.93,251.74,Unlimited,SBD,F,
Girls,82.33,21,Olivia Oneil,Valley View,75.48,90.72,22.68,72.57,185.97,Unlimited,SBD,F,
Girls,82.33,NS,Kylie Owens,Callisburg,,,,,,Unlimited,SBD,F,
Girls,82.33,NS,Kaiyona Hepbourn,Dallas Life Oak Cliff,,,,,,Unlimited,SBD,F,
Girls,82.33,DQ,Maria Duran,Breckenridge,79.02,,,,,Unlimited,SBD,F,
Girls,82.33,DQ,Alexis Malagon,Pilot Point,78.65,136.08,65.77,,,Unlimited,SBD,F,
Girls,82.33,NS,Olivia Six,Nocona,,,,,,Unlimited,SBD,F,
Girls,90.04,1,Jordan Passanisi,Bonham,88.72,158.76,108.86,154.22,421.84,Unlimited,SBD,F,
Girls,90.04,2,Zoe Puckett,Millsap,89.18,156.49,99.79,136.08,392.36,Unlimited,SBD,F,
Girls,90.04,3,Kourtni Hood,Chico,87.63,154.22,92.99,142.88,390.09,Unlimited,SBD,F,
Girls,90.04,4,Katie Boyles,Bowie,87.91,142.88,102.06,136.08,381.02,Unlimited,SBD,F,
Girls,90.04,5,Maddie Lopez,Archer City,86.82,140.61,83.91,147.42,371.95,Unlimited,SBD,F,
Girls,90.04,6,Jenna Rogers,Bowie,88.9,142.88,79.38,138.35,360.61,Unlimited,SBD,F,
Girls,90.04,7,Rebecca Burney,Millsap,83.73,138.35,83.91,131.54,353.8,Unlimited,SBD,F,
Girls,90.04,8,Lani Decker,Chico,87.18,154.22,70.31,127.01,351.53,Unlimited,SBD,F,
Girls,90.04,9,Hannah Wahl,Petrolia,89.99,131.54,61.23,122.47,315.25,Unlimited,SBD,F,
Girls,90.04,10,Zoey Ward,Collinsville,85.73,120.2,68.04,122.47,310.71,Unlimited,SBD,F,
Girls,90.04,11,Regan Wolfe,Callisburg,85.82,131.54,56.7,111.13,299.37,Unlimited,SBD,F,
Girls,90.04,12,Tavyn Mayes,Perrin-Whitt,87.27,113.4,45.36,122.47,281.23,Unlimited,SBD,F,
Girls,90.04,13,Kaitlyn Collier,Whitewright,84.19,102.06,58.97,90.72,251.74,Unlimited,SBD,F,
Girls,90.04,14,Madison Futch,Whitewright,83.19,90.72,49.9,102.06,242.67,Unlimited,SBD,F,
Girls,90.04,15,Angie Vazquez,Leonard,84.55,79.38,54.43,92.99,226.8,Unlimited,SBD,F,
Girls,90.04,16,Caitlyn Roberts,Paradise,84.73,90.72,40.82,92.99,224.53,Unlimited,SBD,F,
Girls,90.04,17,Julia Karg,Paradise,87.18,83.91,45.36,92.99,222.26,Unlimited,SBD,F,
Girls,90.04,18,Wanda Christensen,Paradise,83.64,79.38,45.36,95.25,219.99,Unlimited,SBD,F,
Girls,90.04,DQ,Jayla Dandridge,Wichita Falls City View,82.83,197.31,106.59,,,Unlimited,SBD,F,
Girls,90.04,DQ,Charlee Skinner,Wichita Falls City View,87.63,129.27,,,,Unlimited,SBD,F,
Girls,90.04,DQ,Karem Izaguirre,Ponder,83.91,138.35,72.57,,,Unlimited,SBD,F,
Girls,90.04,DQ,Emma Karg,Paradise,82.46,68.04,43.09,,,Unlimited,SBD,F,
Girls,90.04,NS,Keagan Norman,Nocona,,,,,,Unlimited,SBD,F,
Girls,100.02,1,Kerigan Wegley,Bells,99.79,151.95,111.13,142.88,405.97,Unlimited,SBD,F,
Girls,100.02,2,Dylan Irwin,Millsap,98.25,156.49,70.31,136.08,362.87,Unlimited,SBD,F,
Girls,100.02,3,Brooklynn Lamb,Whitesboro,97.52,161.03,58.97,131.54,351.53,Unlimited,SBD,F,
Girls,100.02,4,Hollie Johnson,Sadler S & S Consolidated,93.35,136.08,72.57,136.08,344.73,Unlimited,SBD,F,
Girls,100.02,5,Candy Rodriguez,Chico,97.89,142.88,74.84,124.74,342.46,Unlimited,SBD,F,
Girls,100.02,6,Jordan Vaught,Bowie,93.44,136.08,68.04,117.93,322.05,Unlimited,SBD,F,
Girls,100.02,7,Tateyanna Taylor,Wichita Falls City View,94.17,111.13,72.57,113.4,297.1,Unlimited,SBD,F,
Girls,100.02,8,Raimee Boren,Tioga,96.52,113.4,63.5,117.93,294.84,Unlimited,SBD,F,
Girls,100.02,9,Jo Stehlik,Ponder,95.89,113.4,63.5,111.13,288.03,Unlimited,SBD,F,
Girls,100.02,10,Jocelynn Chappell,Leonard,90.81,97.52,56.7,104.33,258.55,Unlimited,SBD,F,
Girls,100.02,11,Reiley Bateman,Collinsville,92.9,90.72,65.77,97.52,254.01,Unlimited,SBD,F,
Girls,100.02,12,Christansen Chloie,Alvord,93.17,70.31,52.16,104.33,226.8,Unlimited,SBD,F,
Girls,100.02,NS,Paige James,Nocona,,,,,,Unlimited,SBD,F,
Girls,117.71,1,Nyla Blankinship,Valley View,112.49,174.63,65.77,161.03,401.43,Unlimited,SBD,F,
Girls,117.71,2,Lucy Davis,Ponder,102.69,170.1,74.84,127.01,371.95,Unlimited,SBD,F,
Girls,117.71,3,Hannah Jackson,Ponder,101.42,140.61,83.91,133.81,358.34,Unlimited,SBD,F,
Girls,117.71,4,Zoie Stratton,Whitewright,111.86,145.15,88.45,124.74,358.34,Unlimited,SBD,F,
Girls,117.71,5,Leah Boyd,Bowie,113.04,136.08,77.11,127.01,340.19,Unlimited,SBD,F,
Girls,117.71,6,Nicole Briscoe,Honey Grove,104.87,136.08,61.23,138.35,335.66,Unlimited,SBD,F,
Girls,117.71,7,Maria Toscano,Jacksboro,110.77,142.88,56.7,127.01,326.59,Unlimited,SBD,F,
Girls,117.71,8,Emma Waldrip,Bells,100.24,120.2,77.11,120.2,317.51,Unlimited,SBD,F,
Girls,117.71,9,Kaitlin Westcott,Bells,104.33,117.93,70.31,124.74,312.98,Unlimited,SBD,F,
Girls,117.71,10,Angelina Sanchez,Boyd,114.49,113.4,61.23,124.74,299.37,Unlimited,SBD,F,
Girls,117.71,11,Jamya Reese,Boyd,101.42,102.06,49.9,102.06,254.01,Unlimited,SBD,F,
Girls,117.71,12,Breanna Thomas,Paradise,114.03,81.65,61.23,104.33,247.21,Unlimited,SBD,F,
Girls,117.71,13,Catelyn Armstrong,Howe,102.97,86.18,49.9,106.59,242.67,Unlimited,SBD,F,
Girls,117.71,14,Alexa Gordon,Watauga Harvest Christian Academy,100.06,86.18,40.82,113.4,240.4,Unlimited,SBD,F,
Girls,117.71,15,Jade Villanueava,Henrietta,108.05,88.45,43.09,108.86,240.4,Unlimited,SBD,F,
Girls,117.71,DQ,Raelynne Murphy,Blue Ridge,114.67,102.06,,,,Unlimited,SBD,F,
Girls,117.71,DQ,Cera Sanchez,Bells,106.14,102.06,,,,Unlimited,SBD,F,
Girls,117.71+,1,Avery Crossland,Leonard,127.73,226.8,117.93,172.37,517.1,Unlimited,SBD,F,
Girls,117.71+,2,Bailey Grant,Archer City,134.54,92.99,65.77,113.4,272.16,Unlimited,SBD,F,
Girls,117.71+,DQ,Caitlyn Cox,Ponder,129.64,185.97,88.45,,,Unlimited,SBD,F,
