Division,WeightClassKg,Place,Name,Team,BodyweightKg,Best3SquatKg,Best3BenchKg,Best3DeadliftKg,TotalKg,Equipment,Event,Sex,BirthDate
Boys,51.71,1,Calixto Valencia,Junction,51.53,131.54,77.11,142.88,351.53,Unlimited,SBD,M,
Boys,51.71,2,Caleb Storey,Valera Panther Creek,48.35,106.59,68.04,122.47,297.1,Unlimited,SBD,M,
Boys,51.71,3,Cole Haley,San Angelo Grape Creek,51.26,97.52,52.16,102.06,251.74,Unlimited,SBD,M,
Boys,51.71,4,Tanner Bennett,Miles,47.17,88.45,56.7,99.79,244.94,Unlimited,SBD,M,
Boys,55.79,1,Jorge Lieja,Sonora,55.7,195.04,102.06,183.7,480.81,Unlimited,SBD,M,
Boys,55.79,2,Leo Rangel,Ballinger,54.34,172.37,102.06,170.1,444.52,Unlimited,SBD,M,
Boys,55.79,3,Joaquin Escamilla,San Angelo Grape Creek,53.98,136.08,56.7,181.44,374.21,Unlimited,SBD,M,
Boys,55.79,4,Jack Rogers,Sonora,55.16,124.74,79.38,154.22,358.34,Unlimited,SBD,M,
Boys,55.79,5,Cesar Anderson,Tuscola Jim Ned,55.43,127.01,74.84,136.08,337.93,Unlimited,SBD,M,
Boys,55.79,6,Lucas Salazar,Colorado City Colorado,53.8,108.86,72.57,129.27,310.71,Unlimited,SBD,M,
Boys,55.79,7,Bryson Sheridan,Sweetwater,52.34,106.59,72.57,122.47,301.64,Unlimited,SBD,M,
Boys,55.79,DQ,Collin Majalca,San Angelo TLC Academy,54.7,,,,,Unlimited,SBD,M,
Boys,55.79,DQ,Anthony Davis,Colorado City Colorado,52.62,106.59,77.11,,,Unlimited,SBD,M,
Boys,59.87,1,Ryder Satepauhoodle,Miles,59.42,179.17,90.72,188.24,458.13,Unlimited,SBD,M,
Boys,59.87,2,Vicente Chavez,Ballinger,59.87,176.9,95.25,183.7,455.86,Unlimited,SBD,M,
Boys,59.87,3,Brady Clinton,Ballinger,59.6,142.88,92.99,158.76,394.63,Unlimited,SBD,M,
Boys,59.87,4,Efrain Ruiz,Junction,58.06,136.08,74.84,151.95,362.87,Unlimited,SBD,M,
Boys,59.87,5,Cody Cates,Tuscola Jim Ned,59.51,131.54,83.91,140.61,356.07,Unlimited,SBD,M,
Boys,59.87,6,Eduardo Salazar,Sonora,58.06,131.54,74.84,136.08,342.46,Unlimited,SBD,M,
Boys,59.87,DQ,Mikee Pelzel,Miles,59.51,,,,,Unlimited,SBD,M,
Boys,67.13,1,Ethan Crouch,Miles,65.32,233.6,142.88,215.46,591.94,Unlimited,SBD,M,
Boys,67.13,2,Kam Beck,Tuscola Jim Ned,66.77,192.78,95.25,210.92,498.95,Unlimited,SBD,M,
Boys,67.13,3,Pierson Nord,Ballinger,66.81,174.63,115.67,165.56,455.86,Unlimited,SBD,M,
Boys,67.13,4,Zane Durham,San Angelo Grape Creek,63.05,170.1,90.72,174.63,435.45,Unlimited,SBD,M,
Boys,67.13,5,David Luna,Sonora,64.68,170.1,115.67,149.69,435.45,Unlimited,SBD,M,
Boys,67.13,6,Daniel Davis,Sweetwater,63.96,133.81,111.13,174.63,419.57,Unlimited,SBD,M,
Boys,67.13,7,Teryn Moerbe,Brady,66.04,161.03,92.99,165.56,419.57,Unlimited,SBD,M,
Boys,67.13,8,Kaiden Medrano,Ballinger,62.82,151.95,92.99,161.03,405.97,Unlimited,SBD,M,
Boys,67.13,9,Cutter Travis,Miles,65.68,147.42,99.79,151.95,399.16,Unlimited,SBD,M,
Boys,67.13,10,Kaleb Breeding,Sweetwater,66.86,154.22,97.52,145.15,396.89,Unlimited,SBD,M,
Boys,67.13,11,Ace Mejia,Colorado City Colorado,63.78,138.35,83.91,149.69,371.95,Unlimited,SBD,M,
Boys,67.13,12,Izaak Olinger,Valera Panther Creek,66.04,131.54,81.65,136.08,349.27,Unlimited,SBD,M,
Boys,67.13,13,Andrew Arredondo,San Angelo TLC Academy,63.32,124.74,74.84,142.88,342.46,Unlimited,SBD,M,
Boys,74.84,1,Keagan Walz,Miles,73.12,204.12,97.52,215.46,517.1,Unlimited,SBD,M,
Boys,74.84,2,Aiden Pena,Ballinger,74.75,201.85,117.93,197.31,517.1,Unlimited,SBD,M,
Boys,74.84,3,Nick Wright,Tuscola Jim Ned,73.3,188.24,131.54,190.51,510.29,Unlimited,SBD,M,
Boys,74.84,4,Armani Coronado,Sonora,74.3,195.04,108.86,190.51,494.42,Unlimited,SBD,M,
Boys,74.84,5,Ethan Holcomb,Sweetwater,71.76,174.63,113.4,185.97,474,Unlimited,SBD,M,
Boys,74.84,6,Ayden Yanez,Westbrook,73.66,188.24,111.13,167.83,467.2,Unlimited,SBD,M,
Boys,74.84,7,Carter Perez,Tuscola Jim Ned,73.94,172.37,92.99,167.83,433.18,Unlimited,SBD,M,
Boys,74.84,8,Aiden Hasty,San Angelo Grape Creek,71.21,142.88,74.84,183.7,401.43,Unlimited,SBD,M,
Boys,74.84,9,Avian Cook,San Angelo TLC Academy,68.4,142.88,74.84,170.1,387.82,Unlimited,SBD,M,
Boys,74.84,DQ,Acea Gomez,Sonora,68.58,192.78,,,,Unlimited,SBD,M,
Boys,82.1,1,Ethan Rake,Tuscola Jim Ned,79.2,240.4,165.56,235.87,641.83,Unlimited,SBD,M,
Boys,82.1,2,Joel Gamino,Sweetwater,77.02,224.53,176.9,210.92,612.35,Unlimited,SBD,M,
Boys,82.1,3,Jaxon Herron,Tuscola Jim Ned,81.74,219.99,142.88,215.46,578.33,Unlimited,SBD,M,
Boys,82.1,4,Benjamin Valdez,Brady,81.37,217.72,136.08,195.04,548.85,Unlimited,SBD,M,
Boys,82.1,5,Marco Carreon,Sweetwater,80.56,170.1,122.47,201.85,494.42,Unlimited,SBD,M,
Boys,82.1,6,Cl Fogle,Miles,77.47,192.78,102.06,192.78,487.61,Unlimited,SBD,M,
Boys,82.1,7,Jaydren Resendez,San Angelo Grape Creek,80.29,151.95,108.86,190.51,451.32,Unlimited,SBD,M,
Boys,82.1,9,Ryder White,Westbrook,82.01,158.76,117.93,149.69,426.38,Unlimited,SBD,M,
Boys,82.1,10,Michael Familia,San Angelo TLC Academy,76.11,145.15,99.79,165.56,410.5,Unlimited,SBD,M,
Boys,82.1,11,Nolan Hernandez,Junction,76.48,151.95,97.52,161.03,410.5,Unlimited,SBD,M,
Boys,82.1,12,Lane Perez,Sonora,80.56,167.83,97.52,142.88,408.23,Unlimited,SBD,M,
Boys,82.1,13,Ryan Greenway,Sweetwater,76.38,145.15,106.59,147.42,399.16,Unlimited,SBD,M,
Boys,82.1,14,Hunter Gregory,San Angelo TLC Academy,75.57,145.15,79.38,165.56,390.09,Unlimited,SBD,M,
Boys,82.1,15,Cooper Powell,Brady,81.56,129.27,92.99,145.15,367.41,Unlimited,SBD,M,
Boys,82.1,DQ,Johnny Roque,Brady,77.47,151.95,,,,Unlimited,SBD,M,
Boys,89.81,1,Blaine Maestas,Sweetwater,84.82,206.38,170.1,226.8,603.28,Unlimited,SBD,M,
Boys,89.81,2,Kaden Gutierrez,Westbrook,86.55,192.78,136.08,204.12,532.97,Unlimited,SBD,M,
Boys,89.81,3,Trey Huerta,San Angelo TLC Academy,85.82,195.04,117.93,183.7,496.68,Unlimited,SBD,M,
Boys,89.81,4,Devin Pena,Sweetwater,86.82,192.78,99.79,181.44,474,Unlimited,SBD,M,
Boys,89.81,5,Hayden Cooke,Ballinger,85.14,185.97,111.13,174.63,471.74,Unlimited,SBD,M,
Boys,89.81,6,Sebastian Carrillo,Sweetwater,87.36,174.63,124.74,170.1,469.47,Unlimited,SBD,M,
Boys,89.81,7,Emmitt Whiteley,Westbrook,83.46,147.42,117.93,165.56,430.91,Unlimited,SBD,M,
Boys,89.81,8,David Agüero,Sonora,89.81,156.49,79.38,149.69,385.55,Unlimited,SBD,M,
Boys,89.81,9,Rueben DeLaCruz,Junction,86.45,142.88,92.99,142.88,378.75,Unlimited,SBD,M,
Boys,89.81,10,Ayden Crowder,San Angelo Grape Creek,87.09,106.59,65.77,129.27,301.64,Unlimited,SBD,M,
Boys,89.81,DQ,Maddox Cogbum,Brady,85,149.69,,,,Unlimited,SBD,M,
Boys,99.79,1,Axel Botello,Sonora,97.79,265.35,149.69,204.12,619.15,Unlimited,SBD,M,
Boys,99.79,2,Drew Knickerbocker,Ballinger,91.63,206.38,154.22,206.38,566.99,Unlimited,SBD,M,
Boys,99.79,3,Aden Sanchez,Ballinger,92.53,210.92,142.88,197.31,551.11,Unlimited,SBD,M,
Boys,99.79,4,Justin Knoll,Junction,98.88,204.12,113.4,197.31,514.83,Unlimited,SBD,M,
Boys,99.79,5,David Roberts,Brady,96.98,181.44,131.54,185.97,498.95,Unlimited,SBD,M,
Boys,99.79,6,Kyle Springer,Tuscola Jim Ned,99.06,176.9,124.74,183.7,485.34,Unlimited,SBD,M,
Boys,99.79,7,Julian Gomez,Colorado City Colorado,92.53,158.76,95.25,158.76,412.77,Unlimited,SBD,M,
Boys,99.79,8,Warren Rowe,Junction,99.61,129.27,92.99,142.88,365.14,Unlimited,SBD,M,
Boys,99.79,9,Tony Escobar,San Angelo Grape Creek,92.71,136.08,86.18,133.81,356.07,Unlimited,SBD,M,
Boys,99.79,DQ,Collin Soto,San Angelo TLC Academy,91.9,,,,,Unlimited,SBD,M,
Boys,109.77,1,Joshua Martinez,Ballinger,103.33,231.33,136.08,231.33,598.74,Unlimited,SBD,M,
Boys,109.77,2,Marco Ponce,Junction,101.7,231.33,136.08,224.53,591.94,Unlimited,SBD,M,
Boys,109.77,3,Miguel Avila,Ballinger,104.01,204.12,124.74,158.76,487.61,Unlimited,SBD,M,
Boys,109.77,4,Lawson Thiers,San Angelo Grape Creek,107.95,195.04,97.52,192.78,485.34,Unlimited,SBD,M,
Boys,109.77,5,Adam Knox,Tuscola Jim Ned,104.42,174.63,113.4,183.7,471.74,Unlimited,SBD,M,
Boys,109.77,DQ,Levi Ruiz,Tuscola Jim Ned,106.23,244.94,154.22,,,Unlimited,SBD,M,
Boys,124.74,1,Colton Kelly,Miles,116.39,240.4,147.42,242.67,630.49,Unlimited,SBD,M,
Boys,124.74,2,Aiden Woodell,Colorado City Colorado,114.76,249.48,149.69,201.85,601.01,Unlimited,SBD,M,
Boys,124.74,3,Shawn Garza,Sweetwater,110.5,219.99,145.15,204.12,569.26,Unlimited,SBD,M,
Boys,124.74,4,Jack Robertson,Ballinger,114.31,233.6,129.27,192.78,555.65,Unlimited,SBD,M,
Boys,124.74,5,Jase Garcia,Colorado City Colorado,124.1,219.99,122.47,204.12,546.58,Unlimited,SBD,M,
Boys,124.74,6,Andres DeLaCruz,Junction,114.03,201.85,113.4,172.37,487.61,Unlimited,SBD,M,
Boys,124.74,7,Ralphael Haus,San Angelo TLC Academy,120.66,149.69,99.79,183.7,433.18,Unlimited,SBD,M,
Boys,124.74,8,Landyn Herron,Tuscola Jim Ned,112.49,142.88,95.25,147.42,385.55,Unlimited,SBD,M,
Boys,124.74,9,Jason Reyna,Colorado City Colorado,112.49,138.35,97.52,142.88,378.75,Unlimited,SBD,M,
Boys,124.74,10,Casen Finley,Colorado City Colorado,121.74,127.01,88.45,138.35,353.8,Unlimited,SBD,M,
Boys,139.71,1,South Smith,Brady,126.01,201.85,127.01,181.44,510.29,Unlimited,SBD,M,
Boys,139.71,DQ,Liam Dalton,Tuscola Jim Ned,133.63,265.35,,,,Unlimited,SBD,M,
Boys,139.71+,1,Braydon Kilgore,San Angelo TLC Academy,158.3,272.16,215.46,192.78,680.39,Unlimited,SBD,M,
Boys,139.71+,2,Lorenzo Longoria,San Angelo Grape Creek,144.24,226.8,176.9,192.78,596.47,Unlimited,SBD,M,
Boys,139.71+,3,Genoah Person,Sweetwater,148.51,217.72,172.37,204.12,594.21,Unlimited,SBD,M,
Boys,139.71+,4,Aaron Willis,Junction,144.42,226.8,158.76,199.58,585.13,Unlimited,SBD,M,
Boys,139.71+,5,Aiden Pollock,San Angelo Grape Creek,156.04,192.78,138.35,197.31,528.44,Unlimited,SBD,M,
Boys,,NS,Kennetg Hearin,Colorado City Colorado,,,,,,Unlimited,SBD,M,
Boys,,NS,Jayrdan Espinoza,Colorado City Colorado,,,,,,Unlimited,SBD,M,
Boys,,NS,Callum Slatton,Lohn,,,,,,Unlimited,SBD,M,
Boys,,NS,Sonny Sandoval,San Angelo Grape Creek,,,,,,Unlimited,SBD,M,
Boys,,NS,Konner Linebarger,San Angelo Grape Creek,,,,,,Unlimited,SBD,M,
