Division,WeightClassKg,Place,Name,Team,BodyweightKg,Best3SquatKg,Best3BenchKg,Best3DeadliftKg,TotalKg,Equipment,Event,Sex,BirthDate
Boys,51.71,1,Nick Aranda,Geronimo Navarro,51.66,154.22,97.52,183.7,435.45,Unlimited,SBD,M,
Boys,51.71,2,Eduardo Lopez,Natalia,51.12,131.54,63.5,183.7,378.75,Unlimited,SBD,M,
Boys,51.71,3,Ryan Lopez,Comal Pieper,49.62,138.35,86.18,142.88,367.41,Unlimited,SBD,M,
Boys,51.71,4,Dante Matthews,Seguin,51.71,102.06,54.43,113.4,269.89,Unlimited,SBD,M,
Boys,51.71,5,Luke Baker,Universal City Randolph,50.53,90.72,54.43,102.06,247.21,Unlimited,SBD,M,
Boys,51.71,6,Logan Wyman,Gonzales,49.21,63.5,43.09,92.99,199.58,Unlimited,SBD,M,
Boys,51.71,DQ,Jesus Maldonado,Gonzales,51.71,,,,,Unlimited,SBD,M,
Boys,55.79,1,James Medrano,Seguin,54.39,249.48,154.22,206.38,610.08,Unlimited,SBD,M,
Boys,55.79,2,Joseph Guzman,Lockhart,55.79,149.69,99.79,170.1,419.57,Unlimited,SBD,M,
Boys,55.79,3,Mose Valai,Universal City Randolph,55.07,129.27,81.65,147.42,358.34,Unlimited,SBD,M,
Boys,55.79,4,Calixto Valencia,Junction,52.03,124.74,72.57,136.08,333.39,Unlimited,SBD,M,
Boys,55.79,5,Greyson Karlik,Geronimo Navarro,54.88,115.67,77.11,136.08,328.85,Unlimited,SBD,M,
Boys,55.79,6,Hector Reyna,Gonzales,54.61,117.93,70.31,111.13,299.37,Unlimited,SBD,M,
Boys,55.79,7,Romauldo Falcon,Gonzales,54.34,90.72,63.5,97.52,251.74,Unlimited,SBD,M,
Boys,59.87,1,Ashton Evans,Geronimo Navarro,59.06,206.38,145.15,204.12,555.65,Unlimited,SBD,M,
Boys,59.87,2,Trinidad Aguirre,Geronimo Navarro,59.74,172.37,111.13,192.78,476.27,Unlimited,SBD,M,
Boys,59.87,3,Gabe Cheatum,Universal City Randolph,59.74,136.08,97.52,161.03,394.63,Unlimited,SBD,M,
Boys,59.87,4,Caleb Aguilar,Seguin,59.83,142.88,95.25,149.69,387.82,Unlimited,SBD,M,
Boys,59.87,5,Haydin Johnson,Universal City Randolph,58.06,131.54,81.65,151.95,365.14,Unlimited,SBD,M,
Boys,59.87,6,Efrain Ruiz,Junction,59.33,127.01,72.57,149.69,349.27,Unlimited,SBD,M,
Boys,67.13,1,Korbin Benes,Geronimo Navarro,65.32,213.19,145.15,229.06,587.4,Unlimited,SBD,M,
Boys,67.13,2,Andrew Hernandez,Karnes City,67.13,204.12,124.74,210.92,539.77,Unlimited,SBD,M,
Boys,67.13,3,Dylan Trotti,Geronimo Navarro,66.45,204.12,136.08,185.97,526.17,Unlimited,SBD,M,
Boys,67.13,4,Evan Rodgruez,Geronimo Navarro,66.22,188.24,120.2,195.04,503.49,Unlimited,SBD,M,
Boys,67.13,5,Michael Briggs,Comal Pieper,66.68,183.7,117.93,201.85,503.49,Unlimited,SBD,M,
Boys,67.13,6,Gavin Munoz,Somerset Brooks Academy,67.13,183.7,106.59,210.92,501.22,Unlimited,SBD,M,
Boys,67.13,7,Ryan Bailey,Karnes City,64.41,181.44,127.01,188.24,496.68,Unlimited,SBD,M,
Boys,67.13,8,Eduardo Cerna,Seguin,66.54,149.69,140.61,163.29,453.59,Unlimited,SBD,M,
Boys,67.13,9,Pedro Serna,Karnes City,66.72,151.95,106.59,192.78,451.32,Unlimited,SBD,M,
Boys,67.13,10,Joseph Yanes,Natalia,61.33,172.37,92.99,183.7,449.06,Unlimited,SBD,M,
Boys,67.13,11,Jackson Borgen,Universal City Randolph,66.32,147.42,106.59,176.9,430.91,Unlimited,SBD,M,
Boys,67.13,12,Alexis Cano-Rodriguez,Converse Judson,65.86,151.95,97.52,167.83,417.3,Unlimited,SBD,M,
Boys,67.13,13,Kevin Garcia,Gonzales,64.32,142.88,74.84,183.7,401.43,Unlimited,SBD,M,
Boys,67.13,14,Wayne Jones,Universal City Randolph,61.55,145.15,102.06,142.88,390.09,Unlimited,SBD,M,
Boys,67.13,DQ,Elyjah Estrada-Nelson,Somerset Brooks Academy,67.13,,,,,Unlimited,SBD,M,
Boys,67.13,DQ,Phoenix Luna,Somerset Brooks Academy,63.87,,,,,Unlimited,SBD,M,
Boys,67.13,DQ,Jasiah Herrera,Seguin,66.04,,,,,Unlimited,SBD,M,
Boys,67.13,DQ,Brison Hernandez,Seguin,64.86,,,,,Unlimited,SBD,M,
Boys,74.84,1,Nate Skeete,Universal City Randolph,67.72,195.04,142.88,185.97,523.9,Unlimited,SBD,M,
Boys,74.84,2,Collin Geipel,Geronimo Navarro,74.48,165.56,111.13,188.24,464.93,Unlimited,SBD,M,
Boys,74.84,3,Miguel Portillo,Lockhart,73.71,181.44,106.59,172.37,460.4,Unlimited,SBD,M,
Boys,74.84,4,Hagan Kraul,Geronimo Navarro,74.3,174.63,92.99,183.7,451.32,Unlimited,SBD,M,
Boys,74.84,5,Brady Hoffmeyer,Universal City Randolph,72.62,147.42,97.52,188.24,433.18,Unlimited,SBD,M,
Boys,74.84,6,Chris Anderson,Poth,73.84,156.49,115.67,158.76,430.91,Unlimited,SBD,M,
Boys,74.84,7,Marcos Garcia,Seguin,69.17,156.49,83.91,170.1,410.5,Unlimited,SBD,M,
Boys,74.84,8,Preston Crabill,Lockhart,69.81,158.76,92.99,158.76,410.5,Unlimited,SBD,M,
Boys,74.84,9,Isaak Ibarra,Gonzales,68.67,145.15,99.79,147.42,392.36,Unlimited,SBD,M,
Boys,74.84,10,Jonas Preetorius,Converse Judson,72.98,149.69,83.91,151.95,385.55,Unlimited,SBD,M,
Boys,74.84,11,Pedro Borjon,Gonzales,74.66,127.01,104.33,145.15,376.48,Unlimited,SBD,M,
Boys,74.84,12,Kendall Robinson,Converse Judson,71.67,102.06,86.18,142.88,331.12,Unlimited,SBD,M,
Boys,74.84,13,Joshua Garcia,Converse Judson,67.63,120.2,86.18,111.13,317.51,Unlimited,SBD,M,
Boys,74.84,DQ,Jonathan Corchado,Converse Judson,73.03,124.74,,,,Unlimited,SBD,M,
Boys,74.84,DQ,Johnny Hamilton,Comal Pieper,73.35,183.7,127.01,,,Unlimited,SBD,M,
Boys,82.1,1,Caleb Shiroky,Geronimo Navarro,81.01,229.06,165.56,238.14,632.76,Unlimited,SBD,M,
Boys,82.1,2,Mosses Leija,Natalia,80.78,183.7,127.01,226.8,537.51,Unlimited,SBD,M,
Boys,82.1,3,Israel Soto,Karnes City,77.25,206.38,124.74,190.51,521.63,Unlimited,SBD,M,
Boys,82.1,4,Jorge Garcia,Comal Pieper,80.88,172.37,106.59,206.38,485.34,Unlimited,SBD,M,
Boys,82.1,5,Colton Garza,Poth,76.61,190.51,106.59,185.97,483.08,Unlimited,SBD,M,
Boys,82.1,6,Syrhian Alaniz,Karnes City,76.2,170.1,117.93,183.7,471.74,Unlimited,SBD,M,
Boys,82.1,7,Richie Elizarde,Comal Pieper,82.05,183.7,120.2,156.49,460.4,Unlimited,SBD,M,
Boys,82.1,8,Emmanuel Eciba,Converse Judson,79.51,179.17,79.38,170.1,428.64,Unlimited,SBD,M,
Boys,82.1,DQ,Roland Nino,Gonzales,82.1,149.69,,,,Unlimited,SBD,M,
Boys,89.81,1,Damien Carter,Lockhart,84.59,204.12,122.47,199.58,526.17,Unlimited,SBD,M,
Boys,89.81,2,Ethan Hunter,Universal City Randolph,82.74,179.17,106.59,213.19,498.95,Unlimited,SBD,M,
Boys,89.81,3,Leonardo Buentello,Natalia,84.41,170.1,127.01,199.58,496.68,Unlimited,SBD,M,
Boys,89.81,4,Marco Pena,Converse Judson,89.68,183.7,111.13,201.85,496.68,Unlimited,SBD,M,
Boys,89.81,5,Ben Pham,Comal Pieper,84.32,192.78,129.27,165.56,487.61,Unlimited,SBD,M,
Boys,89.81,6,Mason Berry,Geronimo Navarro,88,183.7,122.47,181.44,487.61,Unlimited,SBD,M,
Boys,89.81,7,Parker Connor,Lockhart,87.5,158.76,131.54,188.24,478.54,Unlimited,SBD,M,
Boys,89.81,8,Malik Hill,Lockhart,88.81,188.24,113.4,172.37,474,Unlimited,SBD,M,
Boys,89.81,9,Harrison Clark,Comal Pieper,86.91,151.95,111.13,183.7,446.79,Unlimited,SBD,M,
Boys,89.81,10,Julian Salto,Lockhart,83.82,161.03,97.52,179.17,437.72,Unlimited,SBD,M,
Boys,89.81,11,Benaiah Williams,Universal City Randolph,86.82,154.22,95.25,188.24,437.72,Unlimited,SBD,M,
Boys,89.81,12,Abel Gonzales,Karnes City,86.45,142.88,92.99,161.03,396.89,Unlimited,SBD,M,
Boys,89.81,13,Rueben DeLaCruz,Junction,87.77,117.93,77.11,133.81,328.85,Unlimited,SBD,M,
Boys,99.79,1,Gavin Neville,Poth,91.63,254.01,183.7,229.06,666.78,Unlimited,SBD,M,
Boys,99.79,2,Mason Harvey,Geronimo Navarro,93.67,219.99,163.29,249.48,632.76,Unlimited,SBD,M,
Boys,99.79,3,Ryan Antuna,Poth,97.07,251.74,165.56,201.85,619.15,Unlimited,SBD,M,
Boys,99.79,4,Rayshawn Black,Converse Judson,98.61,213.19,138.35,240.4,591.94,Unlimited,SBD,M,
Boys,99.79,5,Brayden Dedear,Karnes City,91.08,197.31,145.15,208.65,551.11,Unlimited,SBD,M,
Boys,99.79,6,John Mireles,Seguin,97.34,226.8,158.76,165.56,551.11,Unlimited,SBD,M,
Boys,99.79,7,Brenden Hinojosa,Comal Pieper,96.84,226.8,111.13,210.92,548.85,Unlimited,SBD,M,
Boys,99.79,8,Julian Black,Converse Judson,99.02,158.76,117.93,233.6,510.29,Unlimited,SBD,M,
Boys,99.79,9,Brandon Phelps,Geronimo Navarro,95.25,185.97,124.74,197.31,508.02,Unlimited,SBD,M,
Boys,99.79,10,Kyle Medrano,Seguin,99.2,181.44,131.54,183.7,496.68,Unlimited,SBD,M,
Boys,99.79,11,Kaleb Alvarado,Lockhart,98.88,195.04,124.74,167.83,487.61,Unlimited,SBD,M,
Boys,99.79,12,Justin Knoll,Junction,98.93,192.78,106.59,188.24,487.61,Unlimited,SBD,M,
Boys,99.79,13,Franciso Aguayo,Gonzales,91.99,170.1,79.38,183.7,433.18,Unlimited,SBD,M,
Boys,99.79,14,Jalyn Politini,Universal City Randolph,91.94,129.27,83.91,149.69,362.87,Unlimited,SBD,M,
Boys,99.79,DQ,Brady Hopper,Comal Pieper,97.48,192.78,117.93,,,Unlimited,SBD,M,
Boys,109.77,1,Hunter Mica,Seguin,107.46,278.96,165.56,208.65,653.17,Unlimited,SBD,M,
Boys,109.77,2,Gary Lewis III,Gonzales,107.14,251.74,151.95,199.58,603.28,Unlimited,SBD,M,
Boys,109.77,3,Jason Cruz,Lockhart,109.77,204.12,156.49,226.8,587.4,Unlimited,SBD,M,
Boys,109.77,4,Kevin Dominguez,Seguin,106.59,215.46,174.63,192.78,582.87,Unlimited,SBD,M,
Boys,109.77,5,Josh Hernandez,Geronimo Navarro,109.23,204.12,145.15,204.12,553.38,Unlimited,SBD,M,
Boys,109.77,6,Joshua Menchaca,Comal Pieper,108.86,201.85,149.69,197.31,548.85,Unlimited,SBD,M,
Boys,109.77,7,Marco Ponce,Junction,102.33,217.72,111.13,217.72,546.58,Unlimited,SBD,M,
Boys,109.77,8,Christain Holland,Converse Judson,101.15,197.31,115.67,215.46,528.44,Unlimited,SBD,M,
Boys,109.77,9,Cristofer Paredes,Converse Judson,102.6,192.78,102.06,213.19,508.02,Unlimited,SBD,M,
Boys,109.77,10,Juan Rodriguez,Karnes City,105.01,145.15,70.31,165.56,381.02,Unlimited,SBD,M,
Boys,109.77,DQ,Kevin Veliz,Gonzales,109.27,224.53,,,,Unlimited,SBD,M,
Boys,124.74,1,Taulepeti Valai,Universal City Randolph,120.84,283.5,192.78,249.48,725.75,Unlimited,SBD,M,
Boys,124.74,2,Jathan Alvear,Karnes City,116.12,263.08,183.7,224.53,671.32,Unlimited,SBD,M,
Boys,124.74,3,Frankie Medina,Seguin,118.71,256.28,170.1,183.7,610.08,Unlimited,SBD,M,
Boys,124.74,4,Logan Lopez,Karnes City,121.38,249.48,142.88,217.72,610.08,Unlimited,SBD,M,
Boys,124.74,5,Luke Harris,Converse Judson,123.79,226.8,102.06,238.14,566.99,Unlimited,SBD,M,
Boys,124.74,6,Julian Flores,Universal City Randolph,120.7,208.65,124.74,204.12,537.51,Unlimited,SBD,M,
Boys,124.74,7,Max Contreras,Karnes City,114.53,197.31,131.54,176.9,505.76,Unlimited,SBD,M,
Boys,124.74,8,Daelyn Darby,Lockhart,112.85,188.24,99.79,170.1,458.13,Unlimited,SBD,M,
Boys,124.74,9,Andres DeLaCruz,Junction,114.99,179.17,106.59,147.42,433.18,Unlimited,SBD,M,
Boys,139.71,1,John Como,Comal Pieper,137.76,242.67,165.56,229.06,637.3,Unlimited,SBD,M,
Boys,139.71,2,Brayden Martinez,Lockhart,135.53,235.87,145.15,165.56,546.58,Unlimited,SBD,M,
Boys,139.71,3,Joe Johnson,Lockhart,130.91,215.46,140.61,185.97,542.04,Unlimited,SBD,M,
Boys,139.71,4,Charles Haufler,Gonzales,131.95,188.24,122.47,142.88,453.59,Unlimited,SBD,M,
Boys,139.71,DQ,Chris Ledezma,Geronimo Navarro,131.54,190.51,,,,Unlimited,SBD,M,
Boys,139.71+,1,Aaron Willis,Junction,142.29,235.87,158.76,195.04,589.67,Unlimited,SBD,M,
Boys,139.71+,DQ,Braylon Saekoaleo,Comal Pieper,139.8,233.6,170.1,,,Unlimited,SBD,M,
